FP4/SkNiKr/Podatki/S330.csv

Record Length,Analog:7000
Sample Interval,CH:0.0000001000000
Vertical Units,CH1:V CH2:V CH4:V,,,
Vertical Scale,CH1:+2.000000E-03 CH2:+2.000000E-03 CH4:+5.000000E-01,,,
Vertical Offset,CH1:+4.800000E-04 CH2:+4.800000E-04 CH4:+2.700000E-01,,,
Horizontal Units,us,,,
Horizontal Scale,50.0000000000,,,
Model Number,SDS1104X-E,,,
Serial Number,SDSMMEBX4R2044,,,
Software Version,8.1.6.1.35R2,,,
Source,CH1,CH2,CH4
Second,Volt,Volt,Volt
-6.100000E-05,-4.800000E-04,-4.000000E-04,-1.990000E+00
-6.090000E-05,-4.800000E-04,-4.000000E-04,-1.990000E+00
-6.080000E-05,-5.600000E-04,-3.200000E-04,-1.970000E+00
-6.070000E-05,-5.600000E-04,-3.200000E-04,-1.990000E+00
-6.060000E-05,-5.600000E-04,-3.200000E-04,-1.970000E+00
-6.050000E-05,-5.600000E-04,-3.200000E-04,-1.990000E+00
-6.040000E-05,-4.800000E-04,-3.200000E-04,-1.970000E+00
-6.030000E-05,-4.800000E-04,-4.800000E-04,-1.990000E+00
-6.020000E-05,-4.800000E-04,-4.800000E-04,-1.990000E+00
-6.010000E-05,-4.800000E-04,-4.000000E-04,-1.990000E+00
-6.000000E-05,-5.600000E-04,-4.000000E-04,-1.990000E+00
-5.990000E-05,-4.800000E-04,-4.000000E-04,-1.990000E+00
-5.980000E-05,-5.600000E-04,-4.000000E-04,-1.970000E+00
-5.970000E-05,-6.400000E-04,-3.200000E-04,-1.990000E+00
-5.960000E-05,-5.600000E-04,-3.200000E-04,-1.990000E+00
-5.950000E-05,-4.800000E-04,-3.200000E-04,-1.990000E+00
-5.940000E-05,-4.000000E-04,-4.000000E-04,-1.990000E+00
-5.930000E-05,-3.200000E-04,-3.200000E-04,-1.990000E+00
-5.920000E-05,-4.800000E-04,-4.000000E-04,-1.970000E+00
-5.910000E-05,-3.200000E-04,-4.000000E-04,-1.990000E+00
-5.900000E-05,-4.800000E-04,-4.800000E-04,-1.990000E+00
-5.890000E-05,-5.600000E-04,-3.200000E-04,-1.990000E+00
-5.880000E-05,-5.600000E-04,-4.000000E-04,-1.990000E+00
-5.870000E-05,-6.400000E-04,-3.200000E-04,-1.990000E+00
-5.860000E-05,-4.800000E-04,-3.200000E-04,-1.990000E+00
-5.850000E-05,-4.800000E-04,-4.000000E-04,-1.990000E+00
-5.840000E-05,-4.000000E-04,-4.000000E-04,-1.990000E+00
-5.830000E-05,-4.000000E-04,-4.000000E-04,-1.990000E+00
-5.820000E-05,-4.800000E-04,-4.000000E-04,-1.990000E+00
-5.810000E-05,-5.600000E-04,-3.200000E-04,-1.990000E+00
-5.800000E-05,-5.600000E-04,-3.200000E-04,-1.990000E+00
-5.790000E-05,-5.600000E-04,-3.200000E-04,-1.990000E+00
-5.780000E-05,-4.800000E-04,-2.400000E-04,-1.970000E+00
-5.770000E-05,-4.800000E-04,-4.000000E-04,-1.990000E+00
-5.760000E-05,-4.000000E-04,-3.200000E-04,-1.970000E+00
-5.750000E-05,-3.200000E-04,-4.000000E-04,-1.970000E+00
-5.740000E-05,-4.000000E-04,-4.800000E-04,-1.990000E+00
-5.730000E-05,-4.000000E-04,-4.000000E-04,-1.990000E+00
-5.720000E-05,-4.800000E-04,-4.000000E-04,-1.990000E+00
-5.710000E-05,-4.800000E-04,-2.400000E-04,-1.990000E+00
-5.700000E-05,-5.600000E-04,-8.000000E-05,-1.970000E+00
-5.690000E-05,-5.600000E-04,-1.600000E-04,-1.990000E+00
-5.680000E-05,-4.000000E-04,-1.600000E-04,-1.990000E+00
-5.670000E-05,-4.800000E-04,-1.600000E-04,-1.990000E+00
-5.660000E-05,-4.000000E-04,-2.400000E-04,-1.990000E+00
-5.650000E-05,-4.000000E-04,-4.000000E-04,-1.990000E+00
-5.640000E-05,-4.000000E-04,-3.200000E-04,-1.970000E+00
-5.630000E-05,-4.800000E-04,-3.200000E-04,-1.990000E+00
-5.620000E-05,-4.800000E-04,-4.000000E-04,-1.990000E+00
-5.610000E-05,-4.800000E-04,-3.200000E-04,-1.990000E+00
-5.600000E-05,-4.800000E-04,-3.200000E-04,-1.990000E+00
-5.590000E-05,-4.800000E-04,-2.400000E-04,-1.990000E+00
-5.580000E-05,-4.000000E-04,-3.200000E-04,-1.990000E+00
-5.570000E-05,-4.000000E-04,-4.000000E-04,-1.990000E+00
-5.560000E-05,-4.000000E-04,-4.000000E-04,-1.990000E+00
-5.550000E-05,-4.800000E-04,-3.200000E-04,-1.990000E+00
-5.540000E-05,-4.800000E-04,-3.200000E-04,-1.990000E+00
-5.530000E-05,-4.800000E-04,-2.400000E-04,-1.990000E+00
-5.520000E-05,-5.600000E-04,-2.400000E-04,-1.990000E+00
-5.510000E-05,-5.600000E-04,-2.400000E-04,-1.990000E+00
-5.500000E-05,-4.800000E-04,-2.400000E-04,-1.990000E+00
-5.490000E-05,-4.000000E-04,-3.200000E-04,-1.990000E+00
-5.480000E-05,-4.000000E-04,-4.000000E-04,-1.990000E+00
-5.470000E-05,-4.000000E-04,-4.000000E-04,-1.990000E+00
-5.460000E-05,-4.000000E-04,-4.800000E-04,-1.990000E+00
-5.450000E-05,-4.000000E-04,-5.600000E-04,-1.990000E+00
-5.440000E-05,-4.000000E-04,-4.000000E-04,-1.970000E+00
-5.430000E-05,-6.400000E-04,-3.200000E-04,-1.990000E+00
-5.420000E-05,-5.600000E-04,-2.400000E-04,-1.990000E+00
-5.410000E-05,-5.600000E-04,-3.200000E-04,-1.990000E+00
-5.400000E-05,-4.800000E-04,-3.200000E-04,-1.970000E+00
-5.390000E-05,-4.800000E-04,-3.200000E-04,-1.990000E+00
-5.380000E-05,-4.800000E-04,-3.200000E-04,-1.990000E+00
-5.370000E-05,-4.800000E-04,-3.200000E-04,-1.990000E+00
-5.360000E-05,-4.800000E-04,-4.000000E-04,-1.990000E+00
-5.350000E-05,-4.800000E-04,-4.000000E-04,-1.970000E+00
-5.340000E-05,-4.800000E-04,-4.000000E-04,-1.970000E+00
-5.330000E-05,-4.800000E-04,-2.400000E-04,-1.990000E+00
-5.320000E-05,-4.800000E-04,-2.400000E-04,-1.990000E+00
-5.310000E-05,-4.000000E-04,-3.200000E-04,-1.970000E+00
-5.300000E-05,-2.400000E-04,-3.200000E-04,-1.990000E+00
-5.290000E-05,-1.600000E-04,-3.200000E-04,-1.990000E+00
-5.280000E-05,-3.200000E-04,-3.200000E-04,-1.990000E+00
-5.270000E-05,-4.000000E-04,-2.400000E-04,-1.990000E+00
-5.260000E-05,-4.800000E-04,-1.600000E-04,-1.990000E+00
-5.250000E-05,-4.800000E-04,-1.600000E-04,-1.990000E+00
-5.240000E-05,-4.800000E-04,-1.600000E-04,-1.970000E+00
-5.230000E-05,-5.600000E-04,-1.600000E-04,-1.990000E+00
-5.220000E-05,-4.800000E-04,-1.600000E-04,-1.990000E+00
-5.210000E-05,-4.000000E-04,-1.600000E-04,-1.990000E+00
-5.200000E-05,-3.200000E-04,-3.200000E-04,-1.990000E+00
-5.190000E-05,-3.200000E-04,-4.000000E-04,-1.990000E+00
-5.180000E-05,-4.000000E-04,-4.000000E-04,-1.990000E+00
-5.170000E-05,-4.800000E-04,-4.000000E-04,-1.990000E+00
-5.160000E-05,-4.800000E-04,-4.000000E-04,-1.990000E+00
-5.150000E-05,-4.000000E-04,-3.200000E-04,-1.990000E+00
-5.140000E-05,-4.800000E-04,-2.400000E-04,-1.970000E+00
-5.130000E-05,-5.600000E-04,-1.600000E-04,-1.990000E+00
-5.120000E-05,-4.000000E-04,-8.000000E-05,-1.990000E+00
-5.110000E-05,-3.200000E-04,-2.400000E-04,-1.990000E+00
-5.100000E-05,-3.200000E-04,-3.200000E-04,-1.970000E+00
-5.090000E-05,-4.000000E-04,-2.400000E-04,-1.990000E+00
-5.080000E-05,-4.800000E-04,-2.400000E-04,-1.970000E+00
-5.070000E-05,-4.800000E-04,-2.400000E-04,-1.990000E+00
-5.060000E-05,-4.800000E-04,-2.400000E-04,-1.970000E+00
-5.050000E-05,-4.800000E-04,-2.400000E-04,-1.990000E+00
-5.040000E-05,-4.000000E-04,-2.400000E-04,-1.990000E+00
-5.030000E-05,-4.000000E-04,-3.200000E-04,-1.990000E+00
-5.020000E-05,-3.200000E-04,-4.000000E-04,-1.990000E+00
-5.010000E-05,-3.200000E-04,-4.000000E-04,-1.990000E+00
-5.000000E-05,-3.200000E-04,-4.800000E-04,-1.990000E+00
-4.990000E-05,-4.800000E-04,-4.000000E-04,-1.990000E+00
-4.980000E-05,-5.600000E-04,-3.200000E-04,-1.990000E+00
-4.970000E-05,-5.600000E-04,-3.200000E-04,-1.990000E+00
-4.960000E-05,-5.600000E-04,-3.200000E-04,-1.990000E+00
-4.950000E-05,-4.000000E-04,-2.400000E-04,-1.970000E+00
-4.940000E-05,-4.800000E-04,-2.400000E-04,-1.970000E+00
-4.930000E-05,-4.000000E-04,-2.400000E-04,-1.990000E+00
-4.920000E-05,-3.200000E-04,-3.200000E-04,-1.970000E+00
-4.910000E-05,-3.200000E-04,-4.800000E-04,-1.990000E+00
-4.900000E-05,-4.000000E-04,-4.800000E-04,-1.990000E+00
-4.890000E-05,-4.000000E-04,-3.200000E-04,-1.990000E+00
-4.880000E-05,-4.800000E-04,-2.400000E-04,-1.990000E+00
-4.870000E-05,-4.800000E-04,-2.400000E-04,-1.990000E+00
-4.860000E-05,-4.800000E-04,-3.200000E-04,-1.970000E+00
-4.850000E-05,-4.800000E-04,-3.200000E-04,-1.990000E+00
-4.840000E-05,-4.000000E-04,-2.400000E-04,-1.990000E+00
-4.830000E-05,-4.000000E-04,-3.200000E-04,-1.990000E+00
-4.820000E-05,-4.000000E-04,-3.200000E-04,-1.990000E+00
-4.810000E-05,-4.800000E-04,-3.200000E-04,-1.990000E+00
-4.800000E-05,-5.600000E-04,-2.400000E-04,-1.990000E+00
-4.790000E-05,-5.600000E-04,-4.000000E-04,-1.990000E+00
-4.780000E-05,-4.800000E-04,-3.200000E-04,-1.990000E+00
-4.770000E-05,-4.800000E-04,-3.200000E-04,-1.990000E+00
-4.760000E-05,-4.800000E-04,-2.400000E-04,-1.990000E+00
-4.750000E-05,-3.200000E-04,-4.000000E-04,-1.990000E+00
-4.740000E-05,-4.000000E-04,-4.800000E-04,-1.990000E+00
-4.730000E-05,-4.000000E-04,-4.000000E-04,-1.990000E+00
-4.720000E-05,-4.800000E-04,-4.000000E-04,-1.970000E+00
-4.710000E-05,-4.800000E-04,-4.000000E-04,-1.990000E+00
-4.700000E-05,-5.600000E-04,-3.200000E-04,-1.990000E+00
-4.690000E-05,-6.400000E-04,-1.600000E-04,-1.990000E+00
-4.680000E-05,-6.400000E-04,-1.600000E-04,-1.970000E+00
-4.670000E-05,-5.600000E-04,-2.400000E-04,-1.990000E+00
-4.660000E-05,-4.800000E-04,-3.200000E-04,-1.990000E+00
-4.650000E-05,-4.000000E-04,-4.000000E-04,-1.990000E+00
-4.640000E-05,-4.000000E-04,-4.000000E-04,-1.990000E+00
-4.630000E-05,-4.800000E-04,-4.000000E-04,-1.990000E+00
-4.620000E-05,-4.800000E-04,-4.000000E-04,-1.990000E+00
-4.610000E-05,-4.800000E-04,-4.000000E-04,-1.990000E+00
-4.600000E-05,-4.800000E-04,-3.200000E-04,-1.990000E+00
-4.590000E-05,-5.600000E-04,-3.200000E-04,-1.990000E+00
-4.580000E-05,-4.000000E-04,-3.200000E-04,-1.990000E+00
-4.570000E-05,-4.000000E-04,-4.000000E-04,-1.990000E+00
-4.560000E-05,-4.800000E-04,-3.200000E-04,-1.990000E+00
-4.550000E-05,-4.800000E-04,-2.400000E-04,-1.990000E+00
-4.540000E-05,-4.800000E-04,-3.200000E-04,-1.990000E+00
-4.530000E-05,-5.600000E-04,-3.200000E-04,-1.990000E+00
-4.520000E-05,-5.600000E-04,-2.400000E-04,-1.990000E+00
-4.510000E-05,-4.800000E-04,-1.600000E-04,-1.990000E+00
-4.500000E-05,-5.600000E-04,-2.400000E-04,-1.970000E+00
-4.490000E-05,-4.800000E-04,-3.200000E-04,-1.990000E+00
-4.480000E-05,-6.400000E-04,-4.000000E-04,-1.970000E+00
-4.470000E-05,-4.800000E-04,-4.800000E-04,-1.990000E+00
-4.460000E-05,-4.000000E-04,-5.600000E-04,-1.970000E+00
-4.450000E-05,-4.000000E-04,-6.400000E-04,-1.970000E+00
-4.440000E-05,-5.600000E-04,-4.800000E-04,-1.990000E+00
-4.430000E-05,-6.400000E-04,-3.200000E-04,-1.990000E+00
-4.420000E-05,-6.400000E-04,-3.200000E-04,-1.990000E+00
-4.410000E-05,-5.600000E-04,-4.000000E-04,-1.990000E+00
-4.400000E-05,-4.800000E-04,-4.000000E-04,-1.970000E+00
-4.390000E-05,-5.600000E-04,-2.400000E-04,-1.990000E+00
-4.380000E-05,-4.800000E-04,-2.400000E-04,-1.990000E+00
-4.370000E-05,-4.800000E-04,-4.000000E-04,-1.990000E+00
-4.360000E-05,-4.800000E-04,-4.800000E-04,-1.990000E+00
-4.350000E-05,-4.800000E-04,-4.000000E-04,-1.990000E+00
-4.340000E-05,-4.800000E-04,-3.200000E-04,-1.970000E+00
-4.330000E-05,-4.800000E-04,-3.200000E-04,-1.990000E+00
-4.320000E-05,-4.000000E-04,-3.200000E-04,-1.990000E+00
-4.310000E-05,-4.000000E-04,-3.200000E-04,-1.990000E+00
-4.300000E-05,-4.800000E-04,-3.200000E-04,-1.990000E+00
-4.290000E-05,-4.000000E-04,-4.000000E-04,-1.970000E+00
-4.280000E-05,-4.000000E-04,-4.000000E-04,-1.990000E+00
-4.270000E-05,-4.800000E-04,-4.000000E-04,-1.990000E+00
-4.260000E-05,-4.800000E-04,-2.400000E-04,-1.990000E+00
-4.250000E-05,-5.600000E-04,-2.400000E-04,-1.990000E+00
-4.240000E-05,-5.600000E-04,-2.400000E-04,-1.990000E+00
-4.230000E-05,-5.600000E-04,-2.400000E-04,-1.990000E+00
-4.220000E-05,-4.000000E-04,-2.400000E-04,-1.990000E+00
-4.210000E-05,-4.800000E-04,-4.000000E-04,-1.990000E+00
-4.200000E-05,-4.800000E-04,-4.000000E-04,-1.970000E+00
-4.190000E-05,-5.600000E-04,-4.800000E-04,-1.990000E+00
-4.180000E-05,-4.000000E-04,-4.800000E-04,-1.990000E+00
-4.170000E-05,-4.800000E-04,-5.600000E-04,-1.990000E+00
-4.160000E-05,-4.800000E-04,-5.600000E-04,-1.970000E+00
-4.150000E-05,-5.600000E-04,-4.000000E-04,-1.990000E+00
-4.140000E-05,-5.600000E-04,-2.400000E-04,-1.990000E+00
-4.130000E-05,-5.600000E-04,-2.400000E-04,-1.990000E+00
-4.120000E-05,-4.800000E-04,-3.200000E-04,-1.970000E+00
-4.110000E-05,-4.800000E-04,-4.000000E-04,-1.990000E+00
-4.100000E-05,-5.600000E-04,-3.200000E-04,-1.990000E+00
-4.090000E-05,-4.800000E-04,-3.200000E-04,-1.990000E+00
-4.080000E-05,-4.800000E-04,-4.000000E-04,-1.990000E+00
-4.070000E-05,-4.800000E-04,-3.200000E-04,-1.990000E+00
-4.060000E-05,-5.600000E-04,-2.400000E-04,-1.970000E+00
-4.050000E-05,-5.600000E-04,-2.400000E-04,-1.990000E+00
-4.040000E-05,-4.800000E-04,-3.200000E-04,-1.990000E+00
-4.030000E-05,-4.800000E-04,-4.000000E-04,-1.990000E+00
-4.020000E-05,-3.200000E-04,-4.000000E-04,-1.990000E+00
-4.010000E-05,-4.000000E-04,-4.000000E-04,-1.990000E+00
-4.000000E-05,-4.000000E-04,-4.000000E-04,-1.970000E+00
-3.990000E-05,-4.800000E-04,-4.000000E-04,-1.990000E+00
-3.980000E-05,-4.800000E-04,-3.200000E-04,-1.990000E+00
-3.970000E-05,-5.600000E-04,-2.400000E-04,-1.990000E+00
-3.960000E-05,-4.800000E-04,-2.400000E-04,-1.970000E+00
-3.950000E-05,-4.800000E-04,-3.200000E-04,-1.990000E+00
-3.940000E-05,-4.800000E-04,-2.400000E-04,-1.990000E+00
-3.930000E-05,-4.800000E-04,-2.400000E-04,-1.990000E+00
-3.920000E-05,-3.200000E-04,-4.800000E-04,-1.970000E+00
-3.910000E-05,-4.000000E-04,-5.600000E-04,-1.990000E+00
-3.900000E-05,-4.800000E-04,-4.800000E-04,-1.990000E+00
-3.890000E-05,-4.800000E-04,-3.200000E-04,-1.990000E+00
-3.880000E-05,-4.800000E-04,-3.200000E-04,-1.990000E+00
-3.870000E-05,-4.800000E-04,-3.200000E-04,-1.990000E+00
-3.860000E-05,-4.800000E-04,-2.400000E-04,-1.990000E+00
-3.850000E-05,-4.800000E-04,-3.200000E-04,-1.990000E+00
-3.840000E-05,-4.000000E-04,-3.200000E-04,-1.990000E+00
-3.830000E-05,-4.800000E-04,-3.200000E-04,-1.990000E+00
-3.820000E-05,-4.800000E-04,-3.200000E-04,-1.990000E+00
-3.810000E-05,-5.600000E-04,-4.000000E-04,-1.990000E+00
-3.800000E-05,-4.000000E-04,-3.200000E-04,-1.990000E+00
-3.790000E-05,-4.800000E-04,-3.200000E-04,-1.990000E+00
-3.780000E-05,-4.000000E-04,-4.000000E-04,-1.990000E+00
-3.770000E-05,-4.000000E-04,-3.200000E-04,-1.990000E+00
-3.760000E-05,-4.000000E-04,-3.200000E-04,-1.990000E+00
-3.750000E-05,-4.000000E-04,-4.000000E-04,-1.990000E+00
-3.740000E-05,-4.000000E-04,-4.000000E-04,-1.970000E+00
-3.730000E-05,-4.800000E-04,-4.000000E-04,-1.990000E+00
-3.720000E-05,-4.000000E-04,-4.000000E-04,-1.970000E+00
-3.710000E-05,-4.800000E-04,-2.400000E-04,-1.990000E+00
-3.700000E-05,-5.600000E-04,-3.200000E-04,-1.990000E+00
-3.690000E-05,-5.600000E-04,-2.400000E-04,-1.990000E+00
-3.680000E-05,-5.600000E-04,-2.400000E-04,-1.970000E+00
-3.670000E-05,-4.800000E-04,-2.400000E-04,-1.970000E+00
-3.660000E-05,-4.800000E-04,-4.000000E-04,-1.990000E+00
-3.650000E-05,-4.800000E-04,-3.200000E-04,-1.990000E+00
-3.640000E-05,-4.000000E-04,-3.200000E-04,-1.990000E+00
-3.630000E-05,-4.800000E-04,-4.000000E-04,-1.990000E+00
-3.620000E-05,-4.000000E-04,-4.800000E-04,-1.970000E+00
-3.610000E-05,-4.800000E-04,-4.800000E-04,-1.990000E+00
-3.600000E-05,-4.800000E-04,-3.200000E-04,-1.990000E+00
-3.590000E-05,-4.800000E-04,-3.200000E-04,-1.990000E+00
-3.580000E-05,-4.000000E-04,-4.800000E-04,-1.970000E+00
-3.570000E-05,-4.000000E-04,-4.000000E-04,-1.990000E+00
-3.560000E-05,-4.800000E-04,-2.400000E-04,-1.990000E+00
-3.550000E-05,-5.600000E-04,-3.200000E-04,-1.990000E+00
-3.540000E-05,-6.400000E-04,-3.200000E-04,-1.970000E+00
-3.530000E-05,-4.800000E-04,-2.400000E-04,-1.990000E+00
-3.520000E-05,-4.800000E-04,-3.200000E-04,-1.970000E+00
-3.510000E-05,-4.800000E-04,-2.400000E-04,-1.990000E+00
-3.500000E-05,-5.600000E-04,-3.200000E-04,-1.970000E+00
-3.490000E-05,-4.000000E-04,-3.200000E-04,-1.990000E+00
-3.480000E-05,-4.800000E-04,-3.200000E-04,-1.990000E+00
-3.470000E-05,-3.200000E-04,-4.000000E-04,-1.990000E+00
-3.460000E-05,-4.000000E-04,-4.800000E-04,-1.990000E+00
-3.450000E-05,-4.000000E-04,-3.200000E-04,-1.990000E+00
-3.440000E-05,-5.600000E-04,-3.200000E-04,-1.990000E+00
-3.430000E-05,-4.800000E-04,-3.200000E-04,-1.990000E+00
-3.420000E-05,-4.800000E-04,-4.000000E-04,-1.990000E+00
-3.410000E-05,-4.000000E-04,-4.000000E-04,-1.970000E+00
-3.400000E-05,-4.800000E-04,-3.200000E-04,-1.990000E+00
-3.390000E-05,-4.800000E-04,-2.400000E-04,-1.990000E+00
-3.380000E-05,-4.800000E-04,-3.200000E-04,-1.970000E+00
-3.370000E-05,-4.000000E-04,-3.200000E-04,-1.990000E+00
-3.360000E-05,-4.800000E-04,-3.200000E-04,-1.990000E+00
-3.350000E-05,-4.000000E-04,-4.000000E-04,-1.990000E+00
-3.340000E-05,-4.800000E-04,-3.200000E-04,-1.990000E+00
-3.330000E-05,-4.000000E-04,-3.200000E-04,-1.990000E+00
-3.320000E-05,-4.800000E-04,-4.000000E-04,-1.990000E+00
-3.310000E-05,-4.000000E-04,-3.200000E-04,-1.990000E+00
-3.300000E-05,-4.800000E-04,-3.200000E-04,-1.990000E+00
-3.290000E-05,-4.000000E-04,-4.000000E-04,-1.990000E+00
-3.280000E-05,-5.600000E-04,-3.200000E-04,-1.990000E+00
-3.270000E-05,-4.800000E-04,-3.200000E-04,-1.990000E+00
-3.260000E-05,-4.800000E-04,-2.400000E-04,-1.990000E+00
-3.250000E-05,-4.800000E-04,-2.400000E-04,-1.990000E+00
-3.240000E-05,-4.800000E-04,-3.200000E-04,-1.990000E+00
-3.230000E-05,-4.800000E-04,-4.000000E-04,-1.990000E+00
-3.220000E-05,-4.800000E-04,-2.400000E-04,-1.990000E+00
-3.210000E-05,-4.800000E-04,-4.000000E-04,-1.990000E+00
-3.200000E-05,-4.800000E-04,-4.800000E-04,-1.990000E+00
-3.190000E-05,-5.600000E-04,-4.800000E-04,-1.990000E+00
-3.180000E-05,-4.800000E-04,-4.000000E-04,-1.990000E+00
-3.170000E-05,-4.800000E-04,-4.800000E-04,-1.990000E+00
-3.160000E-05,-5.600000E-04,-4.800000E-04,-1.990000E+00
-3.150000E-05,-5.600000E-04,-4.000000E-04,-1.990000E+00
-3.140000E-05,-5.600000E-04,-3.200000E-04,-1.970000E+00
-3.130000E-05,-5.600000E-04,-3.200000E-04,-1.990000E+00
-3.120000E-05,-5.600000E-04,-4.000000E-04,-1.990000E+00
-3.110000E-05,-5.600000E-04,-3.200000E-04,-1.970000E+00
-3.100000E-05,-5.600000E-04,-3.200000E-04,-1.990000E+00
-3.090000E-05,-4.800000E-04,-4.000000E-04,-1.990000E+00
-3.080000E-05,-4.800000E-04,-4.000000E-04,-1.990000E+00
-3.070000E-05,-4.800000E-04,-3.200000E-04,-1.990000E+00
-3.060000E-05,-4.000000E-04,-2.400000E-04,-1.970000E+00
-3.050000E-05,-4.000000E-04,-4.000000E-04,-1.990000E+00
-3.040000E-05,-4.000000E-04,-4.800000E-04,-1.990000E+00
-3.030000E-05,-4.800000E-04,-4.800000E-04,-1.990000E+00
-3.020000E-05,-4.800000E-04,-4.000000E-04,-1.990000E+00
-3.010000E-05,-4.800000E-04,-4.000000E-04,-1.990000E+00
-3.000000E-05,-5.600000E-04,-3.200000E-04,-1.970000E+00
-2.990000E-05,-6.400000E-04,-4.000000E-04,-1.990000E+00
-2.980000E-05,-5.600000E-04,-3.200000E-04,-1.990000E+00
-2.970000E-05,-5.600000E-04,-3.200000E-04,-1.990000E+00
-2.960000E-05,-4.800000E-04,-3.200000E-04,-1.990000E+00
-2.950000E-05,-5.600000E-04,-4.000000E-04,-1.990000E+00
-2.940000E-05,-4.800000E-04,-2.400000E-04,-1.990000E+00
-2.930000E-05,-5.600000E-04,-4.000000E-04,-1.990000E+00
-2.920000E-05,-4.000000E-04,-4.800000E-04,-1.970000E+00
-2.910000E-05,-4.000000E-04,-4.000000E-04,-1.990000E+00
-2.900000E-05,-4.800000E-04,-4.000000E-04,-1.990000E+00
-2.890000E-05,-4.000000E-04,-5.600000E-04,-1.990000E+00
-2.880000E-05,-4.800000E-04,-4.000000E-04,-1.970000E+00
-2.870000E-05,-5.600000E-04,-3.200000E-04,-1.990000E+00
-2.860000E-05,-4.800000E-04,-3.200000E-04,-1.990000E+00
-2.850000E-05,-5.600000E-04,-3.200000E-04,-1.990000E+00
-2.840000E-05,-4.800000E-04,-3.200000E-04,-1.990000E+00
-2.830000E-05,-5.600000E-04,-3.200000E-04,-1.990000E+00
-2.820000E-05,-5.600000E-04,-3.200000E-04,-1.970000E+00
-2.810000E-05,-5.600000E-04,-3.200000E-04,-1.990000E+00
-2.800000E-05,-4.800000E-04,-3.200000E-04,-1.970000E+00
-2.790000E-05,-4.800000E-04,-3.200000E-04,-1.990000E+00
-2.780000E-05,-4.000000E-04,-4.000000E-04,-1.990000E+00
-2.770000E-05,-4.000000E-04,-4.800000E-04,-1.990000E+00
-2.760000E-05,-3.200000E-04,-4.000000E-04,-1.990000E+00
-2.750000E-05,-4.000000E-04,-4.800000E-04,-1.970000E+00
-2.740000E-05,-4.000000E-04,-4.800000E-04,-1.990000E+00
-2.730000E-05,-5.600000E-04,-3.200000E-04,-1.990000E+00
-2.720000E-05,-4.800000E-04,-3.200000E-04,-1.990000E+00
-2.710000E-05,-5.600000E-04,-2.400000E-04,-1.990000E+00
-2.700000E-05,-4.800000E-04,-3.200000E-04,-1.990000E+00
-2.690000E-05,-5.600000E-04,-2.400000E-04,-1.990000E+00
-2.680000E-05,-4.800000E-04,-1.600000E-04,-1.990000E+00
-2.670000E-05,-5.600000E-04,-2.400000E-04,-1.990000E+00
-2.660000E-05,-4.000000E-04,-4.000000E-04,-1.970000E+00
-2.650000E-05,-4.800000E-04,-3.200000E-04,-1.990000E+00
-2.640000E-05,-4.000000E-04,-4.000000E-04,-1.970000E+00
-2.630000E-05,-4.800000E-04,-3.200000E-04,-1.970000E+00
-2.620000E-05,-4.000000E-04,-3.200000E-04,-1.990000E+00
