FP4/KarIU/Podatki/DN200HZ.csv

Record Length,Analog:7000
Sample Interval,CH:0.0000020000000
Vertical Units,CH1:V CH2:V,,,
Vertical Scale,CH1:+2.000000E+00 CH2:+2.000000E+00,,,
Vertical Offset,CH1:+3.400000E+00 CH2:-1.360000E+00,,,
Horizontal Units,us,,,
Horizontal Scale,1000.0000000000,,,
Model Number,SDS1104X-E,,,
Serial Number,SDSMMEBX4R2043,,,
Software Version,8.1.6.1.35R2,,,
Source,CH1,CH2
Second,Volt,Volt
-7.000000E-03,-9.160000E+00,+0.000000E+00
-6.998000E-03,-9.160000E+00,+0.000000E+00
-6.996000E-03,-9.080000E+00,+0.000000E+00
-6.994000E-03,-9.080000E+00,+0.000000E+00
-6.992000E-03,-9.160000E+00,+0.000000E+00
-6.990000E-03,-9.080000E+00,+0.000000E+00
-6.988000E-03,-9.160000E+00,+0.000000E+00
-6.986000E-03,-9.160000E+00,+0.000000E+00
-6.984000E-03,-9.160000E+00,+0.000000E+00
-6.982000E-03,-9.160000E+00,+0.000000E+00
-6.980000E-03,-9.160000E+00,+0.000000E+00
-6.978000E-03,-9.160000E+00,+0.000000E+00
-6.976000E-03,-9.160000E+00,+0.000000E+00
-6.974000E-03,-9.160000E+00,+0.000000E+00
-6.972000E-03,-9.160000E+00,+0.000000E+00
-6.970000E-03,-9.160000E+00,+0.000000E+00
-6.968000E-03,-9.160000E+00,+0.000000E+00
-6.966000E-03,-9.160000E+00,+0.000000E+00
-6.964000E-03,-9.160000E+00,+0.000000E+00
-6.962000E-03,-9.160000E+00,+0.000000E+00
-6.960000E-03,-9.160000E+00,+0.000000E+00
-6.958000E-03,-9.160000E+00,+0.000000E+00
-6.956000E-03,-9.160000E+00,+0.000000E+00
-6.954000E-03,-9.160000E+00,+0.000000E+00
-6.952000E-03,-9.160000E+00,+0.000000E+00
-6.950000E-03,-9.160000E+00,+0.000000E+00
-6.948000E-03,-9.160000E+00,+0.000000E+00
-6.946000E-03,-9.240000E+00,+0.000000E+00
-6.944000E-03,-9.160000E+00,+0.000000E+00
-6.942000E-03,-9.160000E+00,+0.000000E+00
-6.940000E-03,-9.160000E+00,+0.000000E+00
-6.938000E-03,-9.240000E+00,+0.000000E+00
-6.936000E-03,-9.160000E+00,+0.000000E+00
-6.934000E-03,-9.240000E+00,+0.000000E+00
-6.932000E-03,-9.160000E+00,+0.000000E+00
-6.930000E-03,-9.160000E+00,+0.000000E+00
-6.928000E-03,-9.320000E+00,+0.000000E+00
-6.926000E-03,-9.240000E+00,+0.000000E+00
-6.924000E-03,-9.240000E+00,+0.000000E+00
-6.922000E-03,-9.320000E+00,+0.000000E+00
-6.920000E-03,-9.320000E+00,+0.000000E+00
-6.918000E-03,-9.240000E+00,+0.000000E+00
-6.916000E-03,-9.160000E+00,+0.000000E+00
-6.914000E-03,-9.240000E+00,+0.000000E+00
-6.912000E-03,-9.320000E+00,+0.000000E+00
-6.910000E-03,-9.240000E+00,+0.000000E+00
-6.908000E-03,-9.240000E+00,+0.000000E+00
-6.906000E-03,-9.240000E+00,+0.000000E+00
-6.904000E-03,-9.320000E+00,+0.000000E+00
-6.902000E-03,-9.240000E+00,+0.000000E+00
-6.900000E-03,-9.240000E+00,+0.000000E+00
-6.898000E-03,-9.240000E+00,+0.000000E+00
-6.896000E-03,-9.240000E+00,+0.000000E+00
-6.894000E-03,-9.320000E+00,+0.000000E+00
-6.892000E-03,-9.240000E+00,+0.000000E+00
-6.890000E-03,-9.240000E+00,+0.000000E+00
-6.888000E-03,-9.240000E+00,+0.000000E+00
-6.886000E-03,-9.240000E+00,+0.000000E+00
-6.884000E-03,-9.240000E+00,+0.000000E+00
-6.882000E-03,-9.320000E+00,+0.000000E+00
-6.880000E-03,-9.240000E+00,+0.000000E+00
-6.878000E-03,-9.240000E+00,+0.000000E+00
-6.876000E-03,-9.240000E+00,+0.000000E+00
-6.874000E-03,-9.320000E+00,+0.000000E+00
-6.872000E-03,-9.320000E+00,+0.000000E+00
-6.870000E-03,-9.240000E+00,+0.000000E+00
-6.868000E-03,-9.240000E+00,+0.000000E+00
-6.866000E-03,-9.320000E+00,+0.000000E+00
-6.864000E-03,-9.240000E+00,+0.000000E+00
-6.862000E-03,-9.240000E+00,+0.000000E+00
-6.860000E-03,-9.240000E+00,+0.000000E+00
-6.858000E-03,-9.240000E+00,+0.000000E+00
-6.856000E-03,-9.240000E+00,+0.000000E+00
-6.854000E-03,-9.240000E+00,+0.000000E+00
-6.852000E-03,-9.240000E+00,+0.000000E+00
-6.850000E-03,-9.160000E+00,+0.000000E+00
-6.848000E-03,-9.240000E+00,+0.000000E+00
-6.846000E-03,-9.240000E+00,+0.000000E+00
-6.844000E-03,-9.240000E+00,+0.000000E+00
-6.842000E-03,-9.160000E+00,+0.000000E+00
-6.840000E-03,-9.160000E+00,+0.000000E+00
-6.838000E-03,-9.160000E+00,+0.000000E+00
-6.836000E-03,-9.160000E+00,+0.000000E+00
-6.834000E-03,-9.160000E+00,+0.000000E+00
-6.832000E-03,-9.240000E+00,+0.000000E+00
-6.830000E-03,-9.160000E+00,+0.000000E+00
-6.828000E-03,-9.240000E+00,+0.000000E+00
-6.826000E-03,-9.240000E+00,+0.000000E+00
-6.824000E-03,-9.160000E+00,+0.000000E+00
-6.822000E-03,-9.160000E+00,+0.000000E+00
-6.820000E-03,-9.160000E+00,+0.000000E+00
-6.818000E-03,-9.160000E+00,+0.000000E+00
-6.816000E-03,-9.160000E+00,+0.000000E+00
-6.814000E-03,-9.160000E+00,+0.000000E+00
-6.812000E-03,-9.160000E+00,+0.000000E+00
-6.810000E-03,-9.160000E+00,+0.000000E+00
-6.808000E-03,-9.160000E+00,+0.000000E+00
-6.806000E-03,-9.160000E+00,+0.000000E+00
-6.804000E-03,-9.240000E+00,+0.000000E+00
-6.802000E-03,-9.160000E+00,+0.000000E+00
-6.800000E-03,-9.160000E+00,+0.000000E+00
-6.798000E-03,-9.080000E+00,+0.000000E+00
-6.796000E-03,-9.160000E+00,+0.000000E+00
-6.794000E-03,-9.080000E+00,+8.000004E-02
-6.792000E-03,-9.160000E+00,+0.000000E+00
-6.790000E-03,-9.160000E+00,+0.000000E+00
-6.788000E-03,-9.160000E+00,+0.000000E+00
-6.786000E-03,-9.080000E+00,+0.000000E+00
-6.784000E-03,-9.160000E+00,+0.000000E+00
-6.782000E-03,-9.080000E+00,+0.000000E+00
-6.780000E-03,-9.080000E+00,+0.000000E+00
-6.778000E-03,-9.080000E+00,+0.000000E+00
-6.776000E-03,-9.080000E+00,+0.000000E+00
-6.774000E-03,-9.080000E+00,+0.000000E+00
-6.772000E-03,-9.160000E+00,+0.000000E+00
-6.770000E-03,-9.080000E+00,+0.000000E+00
-6.768000E-03,-9.080000E+00,+0.000000E+00
-6.766000E-03,-9.080000E+00,+0.000000E+00
-6.764000E-03,-9.080000E+00,+0.000000E+00
-6.762000E-03,-9.080000E+00,+0.000000E+00
-6.760000E-03,-9.160000E+00,+0.000000E+00
-6.758000E-03,-9.080000E+00,+0.000000E+00
-6.756000E-03,-9.080000E+00,+0.000000E+00
-6.754000E-03,-9.080000E+00,+0.000000E+00
-6.752000E-03,-9.000000E+00,+0.000000E+00
-6.750000E-03,-9.000000E+00,+0.000000E+00
-6.748000E-03,-9.080000E+00,+0.000000E+00
-6.746000E-03,-9.080000E+00,+0.000000E+00
-6.744000E-03,-9.000000E+00,+0.000000E+00
-6.742000E-03,-9.000000E+00,+0.000000E+00
-6.740000E-03,-9.000000E+00,+0.000000E+00
-6.738000E-03,-9.080000E+00,+0.000000E+00
-6.736000E-03,-9.000000E+00,+0.000000E+00
-6.734000E-03,-9.000000E+00,+0.000000E+00
-6.732000E-03,-9.080000E+00,+0.000000E+00
-6.730000E-03,-9.000000E+00,+0.000000E+00
-6.728000E-03,-9.000000E+00,+0.000000E+00
-6.726000E-03,-9.000000E+00,+0.000000E+00
-6.724000E-03,-8.920000E+00,+0.000000E+00
-6.722000E-03,-9.000000E+00,+0.000000E+00
-6.720000E-03,-9.000000E+00,+0.000000E+00
-6.718000E-03,-9.000000E+00,+0.000000E+00
-6.716000E-03,-9.000000E+00,+0.000000E+00
-6.714000E-03,-8.920000E+00,+0.000000E+00
-6.712000E-03,-9.000000E+00,+0.000000E+00
-6.710000E-03,-8.920000E+00,+0.000000E+00
-6.708000E-03,-8.920000E+00,+0.000000E+00
-6.706000E-03,-8.920000E+00,+8.000004E-02
-6.704000E-03,-8.920000E+00,+0.000000E+00
-6.702000E-03,-8.920000E+00,+0.000000E+00
-6.700000E-03,-8.920000E+00,+0.000000E+00
-6.698000E-03,-8.920000E+00,+0.000000E+00
-6.696000E-03,-8.920000E+00,+0.000000E+00
-6.694000E-03,-8.920000E+00,+0.000000E+00
-6.692000E-03,-8.920000E+00,+0.000000E+00
-6.690000E-03,-8.920000E+00,+0.000000E+00
-6.688000E-03,-8.920000E+00,+0.000000E+00
-6.686000E-03,-8.920000E+00,+0.000000E+00
-6.684000E-03,-8.920000E+00,+0.000000E+00
-6.682000E-03,-8.920000E+00,+0.000000E+00
-6.680000E-03,-8.840000E+00,+0.000000E+00
-6.678000E-03,-8.920000E+00,+0.000000E+00
-6.676000E-03,-8.840000E+00,+0.000000E+00
-6.674000E-03,-8.840000E+00,+0.000000E+00
-6.672000E-03,-8.920000E+00,+0.000000E+00
-6.670000E-03,-8.840000E+00,+0.000000E+00
-6.668000E-03,-8.840000E+00,+0.000000E+00
-6.666000E-03,-8.840000E+00,+0.000000E+00
-6.664000E-03,-8.840000E+00,+0.000000E+00
-6.662000E-03,-8.840000E+00,+0.000000E+00
-6.660000E-03,-8.840000E+00,+0.000000E+00
-6.658000E-03,-8.840000E+00,+0.000000E+00
-6.656000E-03,-8.840000E+00,+0.000000E+00
-6.654000E-03,-8.840000E+00,+0.000000E+00
-6.652000E-03,-8.840000E+00,+0.000000E+00
-6.650000E-03,-8.840000E+00,+0.000000E+00
-6.648000E-03,-8.760000E+00,+0.000000E+00
-6.646000E-03,-8.760000E+00,+0.000000E+00
-6.644000E-03,-8.760000E+00,+0.000000E+00
-6.642000E-03,-8.760000E+00,+0.000000E+00
-6.640000E-03,-8.840000E+00,+0.000000E+00
-6.638000E-03,-8.760000E+00,+0.000000E+00
-6.636000E-03,-8.760000E+00,+0.000000E+00
-6.634000E-03,-8.760000E+00,+0.000000E+00
-6.632000E-03,-8.760000E+00,+0.000000E+00
-6.630000E-03,-8.760000E+00,+0.000000E+00
-6.628000E-03,-8.760000E+00,+0.000000E+00
-6.626000E-03,-8.760000E+00,+0.000000E+00
-6.624000E-03,-8.760000E+00,+0.000000E+00
-6.622000E-03,-8.680000E+00,+0.000000E+00
-6.620000E-03,-8.680000E+00,+0.000000E+00
-6.618000E-03,-8.680000E+00,+0.000000E+00
-6.616000E-03,-8.680000E+00,+0.000000E+00
-6.614000E-03,-8.680000E+00,+0.000000E+00
-6.612000E-03,-8.680000E+00,+0.000000E+00
-6.610000E-03,-8.760000E+00,+0.000000E+00
-6.608000E-03,-8.680000E+00,+0.000000E+00
-6.606000E-03,-8.680000E+00,+0.000000E+00
-6.604000E-03,-8.680000E+00,+0.000000E+00
-6.602000E-03,-8.680000E+00,+0.000000E+00
-6.600000E-03,-8.680000E+00,+0.000000E+00
-6.598000E-03,-8.680000E+00,+0.000000E+00
-6.596000E-03,-8.680000E+00,+0.000000E+00
-6.594000E-03,-8.600000E+00,+0.000000E+00
-6.592000E-03,-8.680000E+00,+0.000000E+00
-6.590000E-03,-8.600000E+00,+0.000000E+00
-6.588000E-03,-8.600000E+00,+0.000000E+00
-6.586000E-03,-8.600000E+00,+0.000000E+00
-6.584000E-03,-8.600000E+00,+0.000000E+00
-6.582000E-03,-8.680000E+00,+0.000000E+00
-6.580000E-03,-8.600000E+00,+0.000000E+00
-6.578000E-03,-8.600000E+00,+0.000000E+00
-6.576000E-03,-8.520000E+00,+0.000000E+00
-6.574000E-03,-8.520000E+00,+0.000000E+00
-6.572000E-03,-8.520000E+00,+0.000000E+00
-6.570000E-03,-8.520000E+00,+0.000000E+00
-6.568000E-03,-8.520000E+00,+0.000000E+00
-6.566000E-03,-8.520000E+00,+0.000000E+00
-6.564000E-03,-8.520000E+00,+0.000000E+00
-6.562000E-03,-8.600000E+00,+0.000000E+00
-6.560000E-03,-8.520000E+00,+8.000004E-02
-6.558000E-03,-8.520000E+00,+0.000000E+00
-6.556000E-03,-8.520000E+00,+0.000000E+00
-6.554000E-03,-8.440001E+00,+0.000000E+00
-6.552000E-03,-8.440001E+00,+0.000000E+00
-6.550000E-03,-8.440001E+00,+8.000004E-02
-6.548000E-03,-8.520000E+00,+0.000000E+00
-6.546000E-03,-8.440001E+00,+8.000004E-02
-6.544000E-03,-8.440001E+00,+0.000000E+00
-6.542000E-03,-8.440001E+00,+0.000000E+00
-6.540000E-03,-8.440001E+00,+0.000000E+00
-6.538000E-03,-8.520000E+00,+0.000000E+00
-6.536000E-03,-8.440001E+00,+0.000000E+00
-6.534000E-03,-8.520000E+00,+0.000000E+00
-6.532000E-03,-8.360001E+00,+0.000000E+00
-6.530000E-03,-8.360001E+00,+0.000000E+00
-6.528000E-03,-8.440001E+00,+0.000000E+00
-6.526000E-03,-8.360001E+00,+0.000000E+00
-6.524000E-03,-8.360001E+00,+0.000000E+00
-6.522000E-03,-8.440001E+00,+0.000000E+00
-6.520000E-03,-8.360001E+00,+0.000000E+00
-6.518000E-03,-8.360001E+00,+0.000000E+00
-6.516000E-03,-8.360001E+00,+0.000000E+00
-6.514000E-03,-8.360001E+00,+0.000000E+00
-6.512000E-03,-8.360001E+00,+0.000000E+00
-6.510000E-03,-8.280001E+00,+0.000000E+00
-6.508000E-03,-8.280001E+00,+0.000000E+00
-6.506000E-03,-8.280001E+00,+8.000004E-02
-6.504000E-03,-8.360001E+00,+0.000000E+00
-6.502000E-03,-8.280001E+00,+0.000000E+00
-6.500000E-03,-8.280001E+00,+0.000000E+00
-6.498000E-03,-8.280001E+00,+0.000000E+00
-6.496000E-03,-8.280001E+00,+0.000000E+00
-6.494000E-03,-8.280001E+00,+0.000000E+00
-6.492000E-03,-8.200000E+00,+8.000004E-02
-6.490000E-03,-8.200000E+00,+0.000000E+00
-6.488000E-03,-8.200000E+00,+0.000000E+00
-6.486000E-03,-8.280001E+00,+0.000000E+00
-6.484000E-03,-8.200000E+00,+0.000000E+00
-6.482000E-03,-8.200000E+00,+0.000000E+00
-6.480000E-03,-8.200000E+00,+0.000000E+00
-6.478000E-03,-8.200000E+00,+8.000004E-02
-6.476000E-03,-8.200000E+00,+0.000000E+00
-6.474000E-03,-8.120000E+00,+0.000000E+00
-6.472000E-03,-8.120000E+00,+0.000000E+00
-6.470000E-03,-8.120000E+00,+0.000000E+00
-6.468000E-03,-8.120000E+00,+0.000000E+00
-6.466000E-03,-8.120000E+00,+0.000000E+00
-6.464000E-03,-8.200000E+00,+8.000004E-02
-6.462000E-03,-8.120000E+00,+0.000000E+00
-6.460000E-03,-8.120000E+00,+0.000000E+00
-6.458000E-03,-8.120000E+00,+0.000000E+00
-6.456000E-03,-8.120000E+00,+8.000004E-02
-6.454000E-03,-8.040000E+00,+0.000000E+00
-6.452000E-03,-8.120000E+00,+0.000000E+00
-6.450000E-03,-8.040000E+00,+8.000004E-02
-6.448000E-03,-8.040000E+00,+0.000000E+00
-6.446000E-03,-8.040000E+00,+0.000000E+00
-6.444000E-03,-8.040000E+00,+0.000000E+00
-6.442000E-03,-7.960000E+00,+8.000004E-02
-6.440000E-03,-8.040000E+00,+0.000000E+00
-6.438000E-03,-7.960000E+00,+0.000000E+00
-6.436000E-03,-7.960000E+00,+0.000000E+00
-6.434000E-03,-7.960000E+00,+0.000000E+00
-6.432000E-03,-8.040000E+00,+8.000004E-02
-6.430000E-03,-7.960000E+00,+0.000000E+00
-6.428000E-03,-8.040000E+00,+0.000000E+00
-6.426000E-03,-7.880000E+00,+0.000000E+00
-6.424000E-03,-7.960000E+00,+8.000004E-02
-6.422000E-03,-7.880000E+00,+8.000004E-02
-6.420000E-03,-7.880000E+00,+8.000004E-02
-6.418000E-03,-7.880000E+00,+0.000000E+00
-6.416000E-03,-7.960000E+00,+8.000004E-02
-6.414000E-03,-7.880000E+00,+0.000000E+00
-6.412000E-03,-7.880000E+00,+0.000000E+00
-6.410000E-03,-7.880000E+00,+0.000000E+00
-6.408000E-03,-7.880000E+00,+0.000000E+00
-6.406000E-03,-7.800000E+00,+0.000000E+00
-6.404000E-03,-7.880000E+00,+0.000000E+00
-6.402000E-03,-7.800000E+00,+0.000000E+00
-6.400000E-03,-7.800000E+00,+0.000000E+00
-6.398000E-03,-7.800000E+00,+0.000000E+00
-6.396000E-03,-7.800000E+00,+0.000000E+00
-6.394000E-03,-7.720000E+00,+0.000000E+00
-6.392000E-03,-7.800000E+00,+0.000000E+00
-6.390000E-03,-7.720000E+00,+0.000000E+00
-6.388000E-03,-7.720000E+00,+0.000000E+00
-6.386000E-03,-7.640000E+00,+0.000000E+00
-6.384000E-03,-7.720000E+00,+0.000000E+00
-6.382000E-03,-7.720000E+00,+0.000000E+00
-6.380000E-03,-7.720000E+00,+8.000004E-02
-6.378000E-03,-7.640000E+00,+0.000000E+00
-6.376000E-03,-7.640000E+00,+0.000000E+00
-6.374000E-03,-7.720000E+00,+0.000000E+00
-6.372000E-03,-7.640000E+00,+0.000000E+00
-6.370000E-03,-7.640000E+00,+8.000004E-02
-6.368000E-03,-7.640000E+00,+8.000004E-02
-6.366000E-03,-7.640000E+00,+0.000000E+00
-6.364000E-03,-7.640000E+00,+0.000000E+00
-6.362000E-03,-7.560000E+00,+0.000000E+00
-6.360000E-03,-7.640000E+00,+0.000000E+00
-6.358000E-03,-7.560000E+00,+0.000000E+00
-6.356000E-03,-7.560000E+00,+0.000000E+00
-6.354000E-03,-7.560000E+00,+0.000000E+00
-6.352000E-03,-7.560000E+00,+8.000004E-02
-6.350000E-03,-7.560000E+00,+8.000004E-02
-6.348000E-03,-7.560000E+00,+0.000000E+00
-6.346000E-03,-7.480000E+00,+0.000000E+00
-6.344000E-03,-7.480000E+00,+0.000000E+00
-6.342000E-03,-7.480000E+00,+0.000000E+00
-6.340000E-03,-7.480000E+00,+0.000000E+00
-6.338000E-03,-7.480000E+00,+8.000004E-02
-6.336000E-03,-7.480000E+00,+0.000000E+00
-6.334000E-03,-7.480000E+00,+0.000000E+00
-6.332000E-03,-7.480000E+00,+0.000000E+00
-6.330000E-03,-7.400000E+00,+8.000004E-02
-6.328000E-03,-7.400000E+00,+0.000000E+00
-6.326000E-03,-7.400000E+00,+0.000000E+00
-6.324000E-03,-7.400000E+00,+8.000004E-02
-6.322000E-03,-7.400000E+00,+0.000000E+00
-6.320000E-03,-7.320000E+00,+0.000000E+00
-6.318000E-03,-7.320000E+00,+0.000000E+00
-6.316000E-03,-7.320000E+00,+0.000000E+00
-6.314000E-03,-7.320000E+00,+8.000004E-02
-6.312000E-03,-7.320000E+00,+0.000000E+00
-6.310000E-03,-7.320000E+00,+0.000000E+00
-6.308000E-03,-7.240000E+00,+0.000000E+00
-6.306000E-03,-7.320000E+00,+8.000004E-02
-6.304000E-03,-7.320000E+00,+8.000004E-02
-6.302000E-03,-7.240000E+00,+0.000000E+00
-6.300000E-03,-7.240000E+00,+0.000000E+00
-6.298000E-03,-7.240000E+00,+0.000000E+00
-6.296000E-03,-7.160000E+00,+0.000000E+00
-6.294000E-03,-7.240000E+00,+0.000000E+00
-6.292000E-03,-7.160000E+00,+0.000000E+00
-6.290000E-03,-7.240000E+00,+0.000000E+00
-6.288000E-03,-7.160000E+00,+0.000000E+00
-6.286000E-03,-7.160000E+00,+0.000000E+00
-6.284000E-03,-7.160000E+00,+8.000004E-02
-6.282000E-03,-7.160000E+00,+0.000000E+00
-6.280000E-03,-7.160000E+00,+0.000000E+00
-6.278000E-03,-7.080000E+00,+0.000000E+00
-6.276000E-03,-7.080000E+00,+0.000000E+00
-6.274000E-03,-7.080000E+00,+0.000000E+00
-6.272000E-03,-7.080000E+00,+0.000000E+00
-6.270000E-03,-7.000000E+00,+8.000004E-02
-6.268000E-03,-7.080000E+00,+0.000000E+00
-6.266000E-03,-7.000000E+00,+0.000000E+00
-6.264000E-03,-7.000000E+00,+0.000000E+00
-6.262000E-03,-7.080000E+00,+0.000000E+00
-6.260000E-03,-7.000000E+00,+0.000000E+00
-6.258000E-03,-7.000000E+00,+0.000000E+00
-6.256000E-03,-6.920000E+00,+8.000004E-02
-6.254000E-03,-6.920000E+00,+0.000000E+00
-6.252000E-03,-6.920000E+00,+0.000000E+00
-6.250000E-03,-6.920000E+00,+0.000000E+00
-6.248000E-03,-6.920000E+00,+8.000004E-02
-6.246000E-03,-6.920000E+00,+0.000000E+00
-6.244000E-03,-6.920000E+00,+0.000000E+00
-6.242000E-03,-6.920000E+00,+0.000000E+00
-6.240000E-03,-6.840000E+00,+0.000000E+00
-6.238000E-03,-6.840000E+00,+0.000000E+00
-6.236000E-03,-6.840000E+00,+0.000000E+00
-6.234000E-03,-6.840000E+00,+0.000000E+00
-6.232000E-03,-6.760000E+00,+8.000004E-02
-6.230000E-03,-6.840000E+00,+0.000000E+00
-6.228000E-03,-6.760000E+00,+8.000004E-02
-6.226000E-03,-6.760000E+00,+0.000000E+00
-6.224000E-03,-6.760000E+00,+0.000000E+00
-6.222000E-03,-6.760000E+00,+0.000000E+00
-6.220000E-03,-6.680000E+00,+0.000000E+00
-6.218000E-03,-6.680000E+00,+0.000000E+00
-6.216000E-03,-6.680000E+00,+8.000004E-02
-6.214000E-03,-6.760000E+00,+0.000000E+00
-6.212000E-03,-6.680000E+00,+0.000000E+00
-6.210000E-03,-6.680000E+00,+0.000000E+00
-6.208000E-03,-6.680000E+00,+0.000000E+00
-6.206000E-03,-6.600000E+00,+0.000000E+00
-6.204000E-03,-6.520000E+00,+0.000000E+00
-6.202000E-03,-6.520000E+00,+8.000004E-02
-6.200000E-03,-6.600000E+00,+0.000000E+00
-6.198000E-03,-6.600000E+00,+0.000000E+00
-6.196000E-03,-6.600000E+00,+0.000000E+00
-6.194000E-03,-6.600000E+00,+0.000000E+00
-6.192000E-03,-6.440000E+00,+8.000004E-02
-6.190000E-03,-6.520000E+00,+0.000000E+00
-6.188000E-03,-6.520000E+00,+0.000000E+00
-6.186000E-03,-6.520000E+00,+0.000000E+00
-6.184000E-03,-6.520000E+00,+0.000000E+00
-6.182000E-03,-6.440000E+00,+8.000004E-02
-6.180000E-03,-6.440000E+00,+8.000004E-02
-6.178000E-03,-6.440000E+00,+8.000004E-02
-6.176000E-03,-6.440000E+00,+0.000000E+00
-6.174000E-03,-6.440000E+00,+0.000000E+00
-6.172000E-03,-6.360000E+00,+0.000000E+00
-6.170000E-03,-6.280000E+00,+8.000004E-02
-6.168000E-03,-6.280000E+00,+8.000004E-02
-6.166000E-03,-6.360000E+00,+0.000000E+00
-6.164000E-03,-6.360000E+00,+0.000000E+00
-6.162000E-03,-6.360000E+00,+0.000000E+00
-6.160000E-03,-6.280000E+00,+8.000004E-02
-6.158000E-03,-6.200000E+00,+0.000000E+00
-6.156000E-03,-6.200000E+00,+0.000000E+00
-6.154000E-03,-6.200000E+00,+8.000004E-02
-6.152000E-03,-6.200000E+00,+8.000004E-02
-6.150000E-03,-6.200000E+00,+0.000000E+00
-6.148000E-03,-6.200000E+00,+0.000000E+00
-6.146000E-03,-6.120000E+00,+0.000000E+00
-6.144000E-03,-6.200000E+00,+0.000000E+00
-6.142000E-03,-6.200000E+00,+0.000000E+00
-6.140000E-03,-6.120000E+00,+0.000000E+00
-6.138000E-03,-6.120000E+00,+0.000000E+00
-6.136000E-03,-6.120000E+00,+0.000000E+00
-6.134000E-03,-6.040000E+00,+0.000000E+00
-6.132000E-03,-6.120000E+00,+0.000000E+00
-6.130000E-03,-6.040000E+00,+0.000000E+00
-6.128000E-03,-6.040000E+00,+0.000000E+00
-6.126000E-03,-6.040000E+00,+0.000000E+00
-6.124000E-03,-6.040000E+00,+8.000004E-02
-6.122000E-03,-5.960000E+00,+8.000004E-02
-6.120000E-03,-6.040000E+00,+8.000004E-02
-6.118000E-03,-5.960000E+00,+0.000000E+00
-6.116000E-03,-6.040000E+00,+0.000000E+00
-6.114000E-03,-5.960000E+00,+0.000000E+00
-6.112000E-03,-5.880000E+00,+0.000000E+00
-6.110000E-03,-5.960000E+00,+0.000000E+00
-6.108000E-03,-5.880000E+00,+0.000000E+00
-6.106000E-03,-5.880000E+00,+8.000004E-02
-6.104000E-03,-5.800000E+00,+8.000004E-02
-6.102000E-03,-5.800000E+00,+8.000004E-02
-6.100000E-03,-5.800000E+00,+0.000000E+00
-6.098000E-03,-5.800000E+00,+0.000000E+00
-6.096000E-03,-5.800000E+00,+8.000004E-02
-6.094000E-03,-5.720000E+00,+0.000000E+00
-6.092000E-03,-5.720000E+00,+0.000000E+00
-6.090000E-03,-5.800000E+00,+0.000000E+00
-6.088000E-03,-5.720000E+00,+0.000000E+00
-6.086000E-03,-5.800000E+00,+8.000004E-02
-6.084000E-03,-5.720000E+00,+0.000000E+00
-6.082000E-03,-5.720000E+00,+0.000000E+00
-6.080000E-03,-5.720000E+00,+8.000004E-02
-6.078000E-03,-5.640000E+00,+0.000000E+00
-6.076000E-03,-5.640000E+00,+8.000004E-02
-6.074000E-03,-5.640000E+00,+0.000000E+00
-6.072000E-03,-5.640000E+00,+0.000000E+00
-6.070000E-03,-5.560000E+00,+0.000000E+00
-6.068000E-03,-5.640000E+00,+8.000004E-02
