FP4/FraHertz/Podatki/TEK0004.CSV

Record Length,2.500000e+03,,  -0.074000000000, -31.20000,
Sample Interval,4.000000e-05,,  -0.073960000000, -31.40000,
Trigger Point,1.850000000000e+03,,  -0.073920000000, -31.40000,
,,,  -0.073880000000, -31.40000,
,,,  -0.073840000000, -31.40000,
,,,  -0.073800000000, -31.40000,
Source,CH1,,  -0.073760000000, -31.40000,
Vertical Units,V,,  -0.073720000000, -31.40000,
Vertical Scale,5.000000e+00,,  -0.073680000000, -31.60000,
Vertical Offset,2.060000e+01,,  -0.073640000000, -31.60000,
Horizontal Units,s,,  -0.073600000000, -31.60000,
Horizontal Scale,1.000000e-02,,  -0.073560000000, -31.60000,
Pt Fmt,Y,,  -0.073520000000, -31.60000,
Yzero,0.000000e+00,,  -0.073480000000, -31.60000,
Probe Atten,1.000000e+01,,  -0.073440000000, -31.80000,
Model Number,TDS2012B,,  -0.073400000000, -31.60000,
Serial Number,C102475,,  -0.073360000000, -31.80000,
Firmware Version,FV:v22.11,,  -0.073320000000, -31.60000,
,,,-00.073280000000, -31.80000,
,,,-00.073240000000, -31.80000,
,,,-00.073200000000, -31.80000,
,,,-00.073160000000, -31.80000,
,,,-00.073120000000, -31.80000,
,,,-00.073080000000, -31.80000,
,,,-00.073040000000, -32.00000,
,,,-00.073000000000, -32.00000,
,,,-00.072960000000, -31.80000,
,,,-00.072920000000, -32.00000,
,,,-00.072880000000, -32.00000,
,,,-00.072840000000, -32.00000,
,,,-00.072800000000, -32.00000,
,,,-00.072760000000, -32.20000,
,,,-00.072720000000, -32.00000,
,,,-00.072680000000, -32.00000,
,,,-00.072640000000, -32.00000,
,,,-00.072600000000, -32.20000,
,,,-00.072560000000, -32.20000,
,,,-00.072520000000, -32.20000,
,,,-00.072480000000, -32.40000,
,,,-00.072440000000, -32.20000,
,,,-00.072400000000, -32.20000,
,,,-00.072360000000, -32.40000,
,,,-00.072320000000, -32.40000,
,,,-00.072280000000, -32.40000,
,,,-00.072240000000, -32.40000,
,,,-00.072200000000, -32.40000,
,,,-00.072160000000, -32.40000,
,,,-00.072120000000, -32.40000,
,,,-00.072080000000, -32.40000,
,,,-00.072040000000, -32.60000,
,,,-00.072000000000, -32.60000,
,,,-00.071960000000, -32.60000,
,,,-00.071920000000, -32.60000,
,,,-00.071880000000, -32.60000,
,,,-00.071840000000, -32.60000,
,,,-00.071800000000, -32.80000,
,,,-00.071760000000, -32.80000,
,,,-00.071720000000, -32.80000,
,,,-00.071680000000, -32.80000,
,,,-00.071640000000, -32.80000,
,,,-00.071600000000, -33.00000,
,,,-00.071560000000, -33.00000,
,,,-00.071520000000, -33.00000,
,,,-00.071480000000, -33.00000,
,,,-00.071440000000, -32.80000,
,,,-00.071400000000, -33.00000,
,,,-00.071360000000, -33.00000,
,,,-00.071320000000, -33.00000,
,,,-00.071280000000, -33.00000,
,,,-00.071240000000, -33.00000,
,,,-00.071200000000, -33.00000,
,,,-00.071160000000, -33.00000,
,,,-00.071120000000, -33.20000,
,,,-00.071080000000, -33.20000,
,,,-00.071040000000, -33.00000,
,,,-00.071000000000, -33.20000,
,,,-00.070960000000, -33.20000,
,,,-00.070920000000, -33.20000,
,,,-00.070880000000, -33.40000,
,,,-00.070840000000, -33.20000,
,,,-00.070800000000, -33.40000,
,,,-00.070760000000, -33.40000,
,,,-00.070720000000, -33.40000,
,,,-00.070680000000, -33.40000,
,,,-00.070640000000, -33.40000,
,,,-00.070600000000, -33.40000,
,,,-00.070560000000, -33.40000,
,,,-00.070520000000, -33.40000,
,,,-00.070480000000, -33.60000,
,,,-00.070440000000, -33.60000,
,,,-00.070400000000, -33.60000,
,,,-00.070360000000, -33.60000,
,,,-00.070320000000, -33.60000,
,,,-00.070280000000, -33.60000,
,,,-00.070240000000, -33.80000,
,,,-00.070200000000, -33.80000,
,,,-00.070160000000, -33.60000,
,,,-00.070120000000, -33.80000,
,,,-00.070080000000, -33.80000,
,,,-00.070040000000, -33.80000,
,,,-00.070000000000, -34.00000,
,,,-00.069960000000, -34.00000,
,,,-00.069920000000, -33.80000,
,,,-00.069880000000, -34.00000,
,,,-00.069840000000, -34.00000,
,,,-00.069800000000, -34.00000,
,,,-00.069760000000, -34.00000,
,,,-00.069720000000, -34.00000,
,,,-00.069680000000, -34.00000,
,,,-00.069640000000, -34.00000,
,,,-00.069600000000, -34.20000,
,,,-00.069560000000, -34.20000,
,,,-00.069520000000, -34.20000,
,,,-00.069480000000, -34.20000,
,,,-00.069440000000, -34.20000,
,,,-00.069400000000, -34.20000,
,,,-00.069360000000, -34.40000,
,,,-00.069320000000, -34.20000,
,,,-00.069280000000, -34.20000,
,,,-00.069240000000, -34.40000,
,,,-00.069200000000, -34.40000,
,,,-00.069160000000, -34.40000,
,,,-00.069120000000, -34.20000,
,,,-00.069080000000, -34.40000,
,,,-00.069040000000, -34.40000,
,,,-00.069000000000, -34.40000,
,,,-00.068960000000, -34.40000,
,,,-00.068920000000, -34.60000,
,,,-00.068880000000, -34.60000,
,,,-00.068840000000, -34.60000,
,,,-00.068800000000, -34.60000,
,,,-00.068760000000, -34.60000,
,,,-00.068720000000, -34.60000,
,,,-00.068680000000, -34.60000,
,,,-00.068640000000, -34.60000,
,,,-00.068600000000, -34.60000,
,,,-00.068560000000, -34.80000,
,,,-00.068520000000, -34.60000,
,,,-00.068480000000, -34.80000,
,,,-00.068440000000, -34.60000,
,,,-00.068400000000, -34.80000,
,,,-00.068360000000, -35.00000,
,,,-00.068320000000, -34.80000,
,,,-00.068280000000, -35.00000,
,,,-00.068240000000, -34.80000,
,,,-00.068200000000, -35.00000,
,,,-00.068160000000, -35.00000,
,,,-00.068120000000, -35.00000,
,,,-00.068080000000, -35.00000,
,,,-00.068040000000, -35.20000,
,,,-00.068000000000, -35.00000,
,,,-00.067960000000, -35.00000,
,,,-00.067920000000, -35.20000,
,,,-00.067880000000, -35.20000,
,,,-00.067840000000, -35.00000,
,,,-00.067800000000, -35.20000,
,,,-00.067760000000, -35.20000,
,,,-00.067720000000, -35.40000,
,,,-00.067680000000, -35.40000,
,,,-00.067640000000, -35.40000,
,,,-00.067600000000, -35.40000,
,,,-00.067560000000, -35.40000,
,,,-00.067520000000, -35.40000,
,,,-00.067480000000, -35.40000,
,,,-00.067440000000, -35.40000,
,,,-00.067400000000, -35.40000,
,,,-00.067360000000, -35.40000,
,,,-00.067320000000, -35.60000,
,,,-00.067280000000, -35.60000,
,,,-00.067240000000, -35.60000,
,,,-00.067200000000, -35.80000,
,,,-00.067160000000, -35.60000,
,,,-00.067120000000, -35.60000,
,,,-00.067080000000, -35.60000,
,,,-00.067040000000, -35.80000,
,,,-00.067000000000, -35.60000,
,,,-00.066960000000, -35.60000,
,,,-00.066920000000, -35.80000,
,,,-00.066880000000, -35.80000,
,,,-00.066840000000, -35.80000,
,,,-00.066800000000, -35.80000,
,,,-00.066760000000, -36.00000,
,,,-00.066720000000, -35.80000,
,,,-00.066680000000, -35.80000,
,,,-00.066640000000, -36.00000,
,,,-00.066600000000, -36.00000,
,,,-00.066560000000, -36.00000,
,,,-00.066520000000, -36.00000,
,,,-00.066480000000, -36.00000,
,,,-00.066440000000, -36.00000,
,,,-00.066400000000, -36.00000,
,,,-00.066360000000, -36.00000,
,,,-00.066320000000, -36.00000,
,,,-00.066280000000, -36.00000,
,,,-00.066240000000, -36.00000,
,,,-00.066200000000, -36.00000,
,,,-00.066160000000, -36.00000,
,,,-00.066120000000, -36.00000,
,,,-00.066080000000, -36.00000,
,,,-00.066040000000, -36.20000,
,,,-00.066000000000, -36.20000,
,,,-00.065960000000, -36.20000,
,,,-00.065920000000, -36.20000,
,,,-00.065880000000, -36.20000,
,,,-00.065840000000, -36.20000,
,,,-00.065800000000, -36.40000,
,,,-00.065760000000, -36.40000,
,,,-00.065720000000, -36.40000,
,,,-00.065680000000, -36.40000,
,,,-00.065640000000, -36.60000,
,,,-00.065600000000, -36.40000,
,,,-00.065560000000, -36.60000,
,,,-00.065520000000, -36.60000,
,,,-00.065480000000, -36.60000,
,,,-00.065440000000, -36.60000,
,,,-00.065400000000, -36.60000,
,,,-00.065360000000, -36.80000,
,,,-00.065320000000, -36.80000,
,,,-00.065280000000, -36.80000,
,,,-00.065240000000, -36.80000,
,,,-00.065200000000, -36.80000,
,,,-00.065160000000, -36.80000,
,,,-00.065120000000, -36.80000,
,,,-00.065080000000, -36.80000,
,,,-00.065040000000, -36.80000,
,,,-00.065000000000, -37.00000,
,,,-00.064960000000, -36.80000,
,,,-00.064920000000, -37.00000,
,,,-00.064880000000, -37.00000,
,,,-00.064840000000, -37.00000,
,,,-00.064800000000, -37.20000,
,,,-00.064760000000, -37.00000,
,,,-00.064720000000, -37.00000,
,,,-00.064680000000, -37.00000,
,,,-00.064640000000, -37.20000,
,,,-00.064600000000, -37.20000,
,,,-00.064560000000, -37.20000,
,,,-00.064520000000, -37.00000,
,,,-00.064480000000, -37.20000,
,,,-00.064440000000, -37.40000,
,,,-00.064400000000, -37.20000,
,,,-00.064360000000, -37.20000,
,,,-00.064320000000, -37.40000,
,,,-00.064280000000, -37.20000,
,,,-00.064240000000, -37.40000,
,,,-00.064200000000, -37.40000,
,,,-00.064160000000, -37.40000,
,,,-00.064120000000, -37.60000,
,,,-00.064080000000, -37.40000,
,,,-00.064040000000, -37.60000,
,,,-00.064000000000, -37.60000,
,,,-00.063960000000, -37.60000,
,,,-00.063920000000, -37.60000,
,,,-00.063880000000, -37.60000,
,,,-00.063840000000, -37.60000,
,,,-00.063800000000, -37.60000,
,,,-00.063760000000, -37.60000,
,,,-00.063720000000, -37.60000,
,,,-00.063680000000, -37.60000,
,,,-00.063640000000, -37.60000,
,,,-00.063600000000, -37.80000,
,,,-00.063560000000, -37.80000,
,,,-00.063520000000, -37.80000,
,,,-00.063480000000, -37.80000,
,,,-00.063440000000, -37.80000,
,,,-00.063400000000, -38.00000,
,,,-00.063360000000, -37.80000,
,,,-00.063320000000, -37.80000,
,,,-00.063280000000, -37.80000,
,,,-00.063240000000, -38.00000,
,,,-00.063200000000, -38.00000,
,,,-00.063160000000, -38.00000,
,,,-00.063120000000, -38.00000,
,,,-00.063080000000, -38.00000,
,,,-00.063040000000, -38.00000,
,,,-00.063000000000, -38.00000,
,,,-00.062960000000, -38.20000,
,,,-00.062920000000, -38.00000,
,,,-00.062880000000, -38.20000,
,,,-00.062840000000, -38.20000,
,,,-00.062800000000, -38.20000,
,,,-00.062760000000, -38.20000,
,,,-00.062720000000, -38.40000,
,,,-00.062680000000, -38.40000,
,,,-00.062640000000, -38.20000,
,,,-00.062600000000, -38.40000,
,,,-00.062560000000, -38.40000,
,,,-00.062520000000, -38.40000,
,,,-00.062480000000, -38.40000,
,,,-00.062440000000, -38.40000,
,,,-00.062400000000, -38.40000,
,,,-00.062360000000, -38.40000,
,,,-00.062320000000, -38.40000,
,,,-00.062280000000, -38.40000,
,,,-00.062240000000, -38.60000,
,,,-00.062200000000, -38.60000,
,,,-00.062160000000, -38.60000,
,,,-00.062120000000, -38.60000,
,,,-00.062080000000, -38.60000,
,,,-00.062040000000, -38.60000,
,,,-00.062000000000, -38.60000,
,,,-00.061960000000, -38.60000,
,,,-00.061920000000, -38.80000,
,,,-00.061880000000, -38.80000,
,,,-00.061840000000, -38.80000,
,,,-00.061800000000, -38.80000,
,,,-00.061760000000, -38.80000,
,,,-00.061720000000, -38.80000,
,,,-00.061680000000, -39.00000,
,,,-00.061640000000, -39.00000,
,,,-00.061600000000, -39.00000,
,,,-00.061560000000, -39.00000,
,,,-00.061520000000, -39.00000,
,,,-00.061480000000, -39.00000,
,,,-00.061440000000, -39.20000,
,,,-00.061400000000, -39.20000,
,,,-00.061360000000, -39.00000,
,,,-00.061320000000, -39.20000,
,,,-00.061280000000, -39.20000,
,,,-00.061240000000, -39.20000,
,,,-00.061200000000, -39.20000,
,,,-00.061160000000, -39.20000,
,,,-00.061120000000, -39.20000,
,,,-00.061080000000, -39.20000,
,,,-00.061040000000, -39.20000,
,,,-00.061000000000, -39.20000,
,,,-00.060960000000, -39.40000,
,,,-00.060920000000, -39.20000,
,,,-00.060880000000, -39.40000,
,,,-00.060840000000, -39.40000,
,,,-00.060800000000, -39.40000,
,,,-00.060760000000, -39.40000,
,,,-00.060720000000, -36.20000,
,,,-00.060680000000, -22.20000,
,,,-00.060640000000, -10.80000,
,,,-00.060600000000,  -4.20000,
,,,-00.060560000000,  -1.40000,
,,,-00.060520000000,  -0.40000,
,,,-00.060480000000,   0.00000,
,,,-00.060440000000,   0.00000,
,,,-00.060400000000,   0.00000,
,,,-00.060360000000,   0.20000,
,,,-00.060320000000,   0.00000,
,,,-00.060280000000,   0.00000,
,,,-00.060240000000,   0.00000,
,,,-00.060200000000,   0.00000,
,,,-00.060160000000,   0.00000,
,,,-00.060120000000,  -0.20000,
,,,-00.060080000000,  -0.20000,
,,,-00.060040000000,  -0.20000,
,,,-00.060000000000,  -0.20000,
,,,-00.059960000000,  -0.20000,
,,,-00.059920000000,  -0.20000,
,,,-00.059880000000,  -0.40000,
,,,-00.059840000000,  -0.40000,
,,,-00.059800000000,  -0.40000,
,,,-00.059760000000,  -0.40000,
,,,-00.059720000000,  -0.40000,
,,,-00.059680000000,  -0.60000,
,,,-00.059640000000,  -0.60000,
,,,-00.059600000000,  -0.40000,
,,,-00.059560000000,  -0.60000,
,,,-00.059520000000,  -0.60000,
,,,-00.059480000000,  -0.60000,
,,,-00.059440000000,  -0.60000,
,,,-00.059400000000,  -0.60000,
,,,-00.059360000000,  -0.60000,
,,,-00.059320000000,  -0.60000,
,,,-00.059280000000,  -0.60000,
,,,-00.059240000000,  -0.60000,
,,,-00.059200000000,  -0.80000,
,,,-00.059160000000,  -0.80000,
,,,-00.059120000000,  -0.80000,
,,,-00.059080000000,  -0.80000,
,,,-00.059040000000,  -1.00000,
,,,-00.059000000000,  -1.00000,
,,,-00.058960000000,  -1.00000,
,,,-00.058920000000,  -1.00000,
,,,-00.058880000000,  -1.00000,
,,,-00.058840000000,  -1.00000,
,,,-00.058800000000,  -1.20000,
,,,-00.058760000000,  -1.00000,
,,,-00.058720000000,  -1.20000,
,,,-00.058680000000,  -1.20000,
,,,-00.058640000000,  -1.20000,
,,,-00.058600000000,  -1.20000,
,,,-00.058560000000,  -1.40000,
,,,-00.058520000000,  -1.20000,
,,,-00.058480000000,  -1.20000,
,,,-00.058440000000,  -1.40000,
,,,-00.058400000000,  -1.20000,
,,,-00.058360000000,  -1.40000,
,,,-00.058320000000,  -1.40000,
,,,-00.058280000000,  -1.40000,
,,,-00.058240000000,  -1.40000,
,,,-00.058200000000,  -1.60000,
,,,-00.058160000000,  -1.60000,
,,,-00.058120000000,  -1.60000,
,,,-00.058080000000,  -1.80000,
,,,-00.058040000000,  -1.60000,
,,,-00.058000000000,  -1.80000,
,,,-00.057960000000,  -1.80000,
,,,-00.057920000000,  -1.80000,
,,,-00.057880000000,  -1.80000,
,,,-00.057840000000,  -1.80000,
,,,-00.057800000000,  -2.00000,
,,,-00.057760000000,  -1.80000,
,,,-00.057720000000,  -1.80000,
,,,-00.057680000000,  -2.00000,
,,,-00.057640000000,  -1.80000,
,,,-00.057600000000,  -2.00000,
,,,-00.057560000000,  -2.00000,
,,,-00.057520000000,  -2.00000,
,,,-00.057480000000,  -2.00000,
,,,-00.057440000000,  -2.00000,
,,,-00.057400000000,  -2.00000,
,,,-00.057360000000,  -2.00000,
,,,-00.057320000000,  -2.20000,
,,,-00.057280000000,  -2.00000,
,,,-00.057240000000,  -2.20000,
,,,-00.057200000000,  -2.20000,
,,,-00.057160000000,  -2.20000,
,,,-00.057120000000,  -2.20000,
,,,-00.057080000000,  -2.40000,
,,,-00.057040000000,  -2.40000,
,,,-00.057000000000,  -2.20000,
,,,-00.056960000000,  -2.40000,
,,,-00.056920000000,  -2.40000,
,,,-00.056880000000,  -2.40000,
,,,-00.056840000000,  -2.60000,
,,,-00.056800000000,  -2.40000,
,,,-00.056760000000,  -2.40000,
,,,-00.056720000000,  -2.40000,
,,,-00.056680000000,  -2.60000,
,,,-00.056640000000,  -2.40000,
,,,-00.056600000000,  -2.60000,
,,,-00.056560000000,  -2.80000,
,,,-00.056520000000,  -2.60000,
,,,-00.056480000000,  -2.60000,
,,,-00.056440000000,  -2.80000,
,,,-00.056400000000,  -2.80000,
,,,-00.056360000000,  -2.80000,
,,,-00.056320000000,  -2.80000,
,,,-00.056280000000,  -2.80000,
,,,-00.056240000000,  -2.80000,
,,,-00.056200000000,  -2.80000,
,,,-00.056160000000,  -2.80000,
,,,-00.056120000000,  -3.00000,
,,,-00.056080000000,  -3.00000,
,,,-00.056040000000,  -3.00000,
,,,-00.056000000000,  -3.00000,
,,,-00.055960000000,  -3.20000,
,,,-00.055920000000,  -3.00000,
,,,-00.055880000000,  -3.20000,
,,,-00.055840000000,  -3.20000,
,,,-00.055800000000,  -3.20000,
,,,-00.055760000000,  -3.40000,
,,,-00.055720000000,  -3.20000,
,,,-00.055680000000,  -3.20000,
,,,-00.055640000000,  -3.20000,
,,,-00.055600000000,  -3.20000,
,,,-00.055560000000,  -3.40000,
,,,-00.055520000000,  -3.40000,
,,,-00.055480000000,  -3.40000,
,,,-00.055440000000,  -3.60000,
,,,-00.055400000000,  -3.60000,
,,,-00.055360000000,  -3.60000,
,,,-00.055320000000,  -3.60000,
,,,-00.055280000000,  -3.60000,
,,,-00.055240000000,  -3.60000,
,,,-00.055200000000,  -3.60000,
,,,-00.055160000000,  -3.60000,
,,,-00.055120000000,  -3.60000,
,,,-00.055080000000,  -3.60000,
,,,-00.055040000000,  -3.80000,
,,,-00.055000000000,  -3.80000,
,,,-00.054960000000,  -3.60000,
,,,-00.054920000000,  -3.80000,
,,,-00.054880000000,  -4.00000,
,,,-00.054840000000,  -3.80000,
,,,-00.054800000000,  -4.00000,
,,,-00.054760000000,  -3.80000,
,,,-00.054720000000,  -4.00000,
,,,-00.054680000000,  -3.80000,
,,,-00.054640000000,  -4.00000,
,,,-00.054600000000,  -4.00000,
,,,-00.054560000000,  -4.20000,
,,,-00.054520000000,  -4.20000,
,,,-00.054480000000,  -4.20000,
,,,-00.054440000000,  -4.20000,
,,,-00.054400000000,  -4.20000,
,,,-00.054360000000,  -4.40000,
,,,-00.054320000000,  -4.20000,
,,,-00.054280000000,  -4.40000,
,,,-00.054240000000,  -4.20000,
,,,-00.054200000000,  -4.40000,
,,,-00.054160000000,  -4.40000,
,,,-00.054120000000,  -4.40000,
,,,-00.054080000000,  -4.40000,
,,,-00.054040000000,  -4.40000,
,,,-00.054000000000,  -4.40000,
,,,-00.053960000000,  -4.40000,
,,,-00.053920000000,  -4.40000,
,,,-00.053880000000,  -4.60000,
,,,-00.053840000000,  -4.60000,
,,,-00.053800000000,  -4.80000,
,,,-00.053760000000,  -4.60000,
,,,-00.053720000000,  -4.60000,
,,,-00.053680000000,  -4.80000,
,,,-00.053640000000,  -4.80000,
,,,-00.053600000000,  -4.80000,
,,,-00.053560000000,  -4.60000,
,,,-00.053520000000,  -4.80000,
,,,-00.053480000000,  -4.80000,
,,,-00.053440000000,  -4.80000,
,,,-00.053400000000,  -5.00000,
,,,-00.053360000000,  -5.00000,
,,,-00.053320000000,  -5.00000,
,,,-00.053280000000,  -5.00000,
,,,-00.053240000000,  -5.00000,
,,,-00.053200000000,  -4.80000,
,,,-00.053160000000,  -5.00000,
,,,-00.053120000000,  -5.00000,
,,,-00.053080000000,  -5.00000,
,,,-00.053040000000,  -5.20000,
,,,-00.053000000000,  -5.20000,
,,,-00.052960000000,  -5.20000,
,,,-00.052920000000,  -5.20000,
,,,-00.052880000000,  -5.40000,
,,,-00.052840000000,  -5.40000,
,,,-00.052800000000,  -5.40000,
,,,-00.052760000000,  -5.40000,
,,,-00.052720000000,  -5.40000,
,,,-00.052680000000,  -5.60000,
,,,-00.052640000000,  -5.40000,
,,,-00.052600000000,  -5.40000,
,,,-00.052560000000,  -5.40000,
,,,-00.052520000000,  -5.60000,
,,,-00.052480000000,  -5.60000,
,,,-00.052440000000,  -5.60000,
,,,-00.052400000000,  -5.60000,
,,,-00.052360000000,  -5.60000,
,,,-00.052320000000,  -5.60000,
,,,-00.052280000000,  -5.60000,
,,,-00.052240000000,  -5.60000,
,,,-00.052200000000,  -5.80000,
,,,-00.052160000000,  -5.80000,
,,,-00.052120000000,  -5.80000,
,,,-00.052080000000,  -5.80000,
,,,-00.052040000000,  -5.80000,
,,,-00.052000000000,  -6.00000,
,,,-00.051960000000,  -5.80000,
,,,-00.051920000000,  -6.00000,
,,,-00.051880000000,  -6.00000,
,,,-00.051840000000,  -6.00000,
,,,-00.051800000000,  -5.80000,
,,,-00.051760000000,  -6.00000,
,,,-00.051720000000,  -6.00000,
,,,-00.051680000000,  -6.20000,
,,,-00.051640000000,  -6.20000,
,,,-00.051600000000,  -6.20000,
,,,-00.051560000000,  -6.20000,
,,,-00.051520000000,  -6.20000,
,,,-00.051480000000,  -6.20000,
,,,-00.051440000000,  -6.20000,
,,,-00.051400000000,  -6.40000,
,,,-00.051360000000,  -6.40000,
,,,-00.051320000000,  -6.40000,
,,,-00.051280000000,  -6.40000,
,,,-00.051240000000,  -6.20000,
,,,-00.051200000000,  -6.40000,
,,,-00.051160000000,  -6.60000,
,,,-00.051120000000,  -6.60000,
,,,-00.051080000000,  -6.40000,
,,,-00.051040000000,  -6.40000,
,,,-00.051000000000,  -6.60000,
,,,-00.050960000000,  -6.60000,
,,,-00.050920000000,  -6.60000,
,,,-00.050880000000,  -6.60000,
,,,-00.050840000000,  -6.60000,
,,,-00.050800000000,  -6.80000,
,,,-00.050760000000,  -6.60000,
,,,-00.050720000000,  -6.60000,
,,,-00.050680000000,  -6.80000,
,,,-00.050640000000,  -6.60000,
,,,-00.050600000000,  -7.00000,
,,,-00.050560000000,  -6.80000,
,,,-00.050520000000,  -7.00000,
,,,-00.050480000000,  -6.80000,
,,,-00.050440000000,  -6.80000,
,,,-00.050400000000,  -6.80000,
,,,-00.050360000000,  -6.80000,
,,,-00.050320000000,  -7.00000,
,,,-00.050280000000,  -7.00000,
,,,-00.050240000000,  -7.00000,
,,,-00.050200000000,  -7.20000,
,,,-00.050160000000,  -7.20000,
,,,-00.050120000000,  -7.20000,
,,,-00.050080000000,  -7.20000,
,,,-00.050040000000,  -7.20000,
,,,-00.050000000000,  -7.20000,
,,,-00.049960000000,  -7.20000,
,,,-00.049920000000,  -7.40000,
,,,-00.049880000000,  -7.40000,
,,,-00.049840000000,  -7.40000,
,,,-00.049800000000,  -7.40000,
,,,-00.049760000000,  -7.40000,
,,,-00.049720000000,  -7.40000,
,,,-00.049680000000,  -7.40000,
,,,-00.049640000000,  -7.40000,
,,,-00.049600000000,  -7.40000,
,,,-00.049560000000,  -7.40000,
,,,-00.049520000000,  -7.60000,
,,,-00.049480000000,  -7.40000,
