FP4/FraHertz/Podatki/TEK0000.CSV

Record Length,2.500000e+03,,  -0.145000000000, -24.80000,
Sample Interval,1.000000e-04,,  -0.144900000000, -24.80000,
Trigger Point,1.450000000000e+03,,  -0.144800000000, -24.80000,
,,,  -0.144700000000, -25.00000,
,,,  -0.144600000000, -25.00000,
,,,  -0.144500000000, -25.00000,
Source,CH1,,  -0.144400000000, -25.40000,
Vertical Units,V,,  -0.144300000000, -25.40000,
Vertical Scale,5.000000e+00,,  -0.144200000000, -25.40000,
Vertical Offset,1.820000e+01,,  -0.144100000000, -25.40000,
Horizontal Units,s,,  -0.144000000000, -25.40000,
Horizontal Scale,2.500000e-02,,  -0.143900000000, -25.60000,
Pt Fmt,Y,,  -0.143800000000, -25.60000,
Yzero,0.000000e+00,,  -0.143700000000, -25.60000,
Probe Atten,1.000000e+01,,  -0.143600000000, -25.80000,
Model Number,TDS2012B,,  -0.143500000000, -25.80000,
Serial Number,C102475,,  -0.143400000000, -25.80000,
Firmware Version,FV:v22.11,,  -0.143300000000, -26.00000,
,,,-00.143200000000, -26.00000,
,,,-00.143100000000, -26.00000,
,,,-00.143000000000, -26.00000,
,,,-00.142900000000, -26.20000,
,,,-00.142800000000, -26.20000,
,,,-00.142700000000, -26.20000,
,,,-00.142600000000, -26.40000,
,,,-00.142500000000, -26.40000,
,,,-00.142400000000, -26.40000,
,,,-00.142300000000, -26.60000,
,,,-00.142200000000, -26.60000,
,,,-00.142100000000, -26.60000,
,,,-00.142000000000, -26.80000,
,,,-00.141900000000, -26.80000,
,,,-00.141800000000, -26.80000,
,,,-00.141700000000, -27.00000,
,,,-00.141600000000, -27.00000,
,,,-00.141500000000, -27.00000,
,,,-00.141400000000, -27.20000,
,,,-00.141300000000, -27.20000,
,,,-00.141200000000, -27.20000,
,,,-00.141100000000, -27.20000,
,,,-00.141000000000, -27.40000,
,,,-00.140900000000, -27.60000,
,,,-00.140800000000, -27.60000,
,,,-00.140700000000, -27.60000,
,,,-00.140600000000, -27.60000,
,,,-00.140500000000, -27.60000,
,,,-00.140400000000, -27.60000,
,,,-00.140300000000, -28.00000,
,,,-00.140200000000, -28.00000,
,,,-00.140100000000, -28.00000,
,,,-00.140000000000, -28.20000,
,,,-00.139900000000, -28.00000,
,,,-00.139800000000, -28.20000,
,,,-00.139700000000, -28.20000,
,,,-00.139600000000, -28.40000,
,,,-00.139500000000, -28.40000,
,,,-00.139400000000, -28.40000,
,,,-00.139300000000, -28.40000,
,,,-00.139200000000, -28.40000,
,,,-00.139100000000, -28.60000,
,,,-00.139000000000, -28.60000,
,,,-00.138900000000, -28.60000,
,,,-00.138800000000, -28.80000,
,,,-00.138700000000, -28.80000,
,,,-00.138600000000, -29.00000,
,,,-00.138500000000, -29.00000,
,,,-00.138400000000, -29.20000,
,,,-00.138300000000, -29.20000,
,,,-00.138200000000, -29.20000,
,,,-00.138100000000, -29.20000,
,,,-00.138000000000, -29.40000,
,,,-00.137900000000, -29.40000,
,,,-00.137800000000, -29.40000,
,,,-00.137700000000, -29.60000,
,,,-00.137600000000, -29.60000,
,,,-00.137500000000, -29.60000,
,,,-00.137400000000, -29.80000,
,,,-00.137300000000, -29.80000,
,,,-00.137200000000, -29.80000,
,,,-00.137100000000, -29.80000,
,,,-00.137000000000, -30.00000,
,,,-00.136900000000, -30.00000,
,,,-00.136800000000, -30.00000,
,,,-00.136700000000, -30.20000,
,,,-00.136600000000, -30.20000,
,,,-00.136500000000, -30.40000,
,,,-00.136400000000, -30.40000,
,,,-00.136300000000, -30.40000,
,,,-00.136200000000, -30.60000,
,,,-00.136100000000, -30.60000,
,,,-00.136000000000, -30.60000,
,,,-00.135900000000, -30.60000,
,,,-00.135800000000, -30.80000,
,,,-00.135700000000, -30.80000,
,,,-00.135600000000, -30.80000,
,,,-00.135500000000, -30.80000,
,,,-00.135400000000, -31.00000,
,,,-00.135300000000, -31.00000,
,,,-00.135200000000, -31.20000,
,,,-00.135100000000, -31.20000,
,,,-00.135000000000, -31.20000,
,,,-00.134900000000, -31.40000,
,,,-00.134800000000, -31.40000,
,,,-00.134700000000, -31.60000,
,,,-00.134600000000, -31.40000,
,,,-00.134500000000, -31.60000,
,,,-00.134400000000, -31.60000,
,,,-00.134300000000, -31.60000,
,,,-00.134200000000, -31.80000,
,,,-00.134100000000, -31.80000,
,,,-00.134000000000, -31.80000,
,,,-00.133900000000, -31.80000,
,,,-00.133800000000, -32.00000,
,,,-00.133700000000, -32.00000,
,,,-00.133600000000, -32.20000,
,,,-00.133500000000, -32.20000,
,,,-00.133400000000, -32.20000,
,,,-00.133300000000, -32.20000,
,,,-00.133200000000, -32.40000,
,,,-00.133100000000, -32.40000,
,,,-00.133000000000, -32.40000,
,,,-00.132900000000, -32.60000,
,,,-00.132800000000, -32.60000,
,,,-00.132700000000, -32.60000,
,,,-00.132600000000, -32.80000,
,,,-00.132500000000, -32.80000,
,,,-00.132400000000, -32.80000,
,,,-00.132300000000, -33.00000,
,,,-00.132200000000, -33.00000,
,,,-00.132100000000, -33.00000,
,,,-00.132000000000, -33.20000,
,,,-00.131900000000, -33.20000,
,,,-00.131800000000, -33.20000,
,,,-00.131700000000, -33.40000,
,,,-00.131600000000, -33.40000,
,,,-00.131500000000, -33.40000,
,,,-00.131400000000, -33.60000,
,,,-00.131300000000, -33.60000,
,,,-00.131200000000, -33.60000,
,,,-00.131100000000, -33.60000,
,,,-00.131000000000, -33.60000,
,,,-00.130900000000, -33.60000,
,,,-00.130800000000, -33.80000,
,,,-00.130700000000, -34.00000,
,,,-00.130600000000, -33.60000,
,,,-00.130500000000, -33.80000,
,,,-00.130400000000, -34.20000,
,,,-00.130300000000, -34.00000,
,,,-00.130200000000, -34.20000,
,,,-00.130100000000, -34.20000,
,,,-00.130000000000, -34.20000,
,,,-00.129900000000, -34.40000,
,,,-00.129800000000, -34.40000,
,,,-00.129700000000, -34.40000,
,,,-00.129600000000, -34.40000,
,,,-00.129500000000, -34.60000,
,,,-00.129400000000, -34.60000,
,,,-00.129300000000, -34.80000,
,,,-00.129200000000, -34.80000,
,,,-00.129100000000, -34.80000,
,,,-00.129000000000, -35.00000,
,,,-00.128900000000, -35.00000,
,,,-00.128800000000, -35.20000,
,,,-00.128700000000, -35.20000,
,,,-00.128600000000, -35.20000,
,,,-00.128500000000, -35.20000,
,,,-00.128400000000, -35.20000,
,,,-00.128300000000, -35.20000,
,,,-00.128200000000, -35.40000,
,,,-00.128100000000, -35.40000,
,,,-00.128000000000, -35.40000,
,,,-00.127900000000, -35.60000,
,,,-00.127800000000, -35.60000,
,,,-00.127700000000, -35.80000,
,,,-00.127600000000, -35.80000,
,,,-00.127500000000, -35.80000,
,,,-00.127400000000, -35.80000,
,,,-00.127300000000, -36.00000,
,,,-00.127200000000, -36.00000,
,,,-00.127100000000, -36.20000,
,,,-00.127000000000, -36.20000,
,,,-00.126900000000, -36.20000,
,,,-00.126800000000, -36.20000,
,,,-00.126700000000, -36.40000,
,,,-00.126600000000, -36.40000,
,,,-00.126500000000, -36.40000,
,,,-00.126400000000, -36.60000,
,,,-00.126300000000, -36.60000,
,,,-00.126200000000, -36.60000,
,,,-00.126100000000, -36.80000,
,,,-00.126000000000, -36.80000,
,,,-00.125900000000, -36.80000,
,,,-00.125800000000, -37.00000,
,,,-00.125700000000, -37.00000,
,,,-00.125600000000, -37.00000,
,,,-00.125500000000, -37.00000,
,,,-00.125400000000, -37.00000,
,,,-00.125300000000, -37.20000,
,,,-00.125200000000, -37.20000,
,,,-00.125100000000, -37.40000,
,,,-00.125000000000, -37.40000,
,,,-00.124900000000, -37.40000,
,,,-00.124800000000, -37.60000,
,,,-00.124700000000, -37.60000,
,,,-00.124600000000, -37.60000,
,,,-00.124500000000, -37.60000,
,,,-00.124400000000, -37.60000,
,,,-00.124300000000, -37.80000,
,,,-00.124200000000, -38.00000,
,,,-00.124100000000, -38.00000,
,,,-00.124000000000, -38.00000,
,,,-00.123900000000, -38.20000,
,,,-00.123800000000, -38.20000,
,,,-00.123700000000, -38.20000,
,,,-00.123600000000, -38.20000,
,,,-00.123500000000, -38.40000,
,,,-00.123400000000, -38.40000,
,,,-00.123300000000, -38.40000,
,,,-00.123200000000, -38.60000,
,,,-00.123100000000, -38.60000,
,,,-00.123000000000, -38.80000,
,,,-00.122900000000, -38.80000,
,,,-00.122800000000, -38.80000,
,,,-00.122700000000, -38.80000,
,,,-00.122600000000, -38.80000,
,,,-00.122500000000, -39.00000,
,,,-00.122400000000, -39.00000,
,,,-00.122300000000, -39.00000,
,,,-00.122200000000, -39.20000,
,,,-00.122100000000, -39.20000,
,,,-00.122000000000, -39.20000,
,,,-00.121900000000, -39.20000,
,,,-00.121800000000, -39.20000,
,,,-00.121700000000, -39.40000,
,,,-00.121600000000, -39.40000,
,,,-00.121500000000, -39.40000,
,,,-00.121400000000, -39.60000,
,,,-00.121300000000, -36.60000,
,,,-00.121200000000,  -7.00000,
,,,-00.121100000000,  -0.40000,
,,,-00.121000000000,   0.00000,
,,,-00.120900000000,   0.00000,
,,,-00.120800000000,   0.00000,
,,,-00.120700000000,  -0.20000,
,,,-00.120600000000,  -0.20000,
,,,-00.120500000000,  -0.40000,
,,,-00.120400000000,  -0.40000,
,,,-00.120300000000,  -0.60000,
,,,-00.120200000000,  -0.60000,
,,,-00.120100000000,  -0.60000,
,,,-00.120000000000,  -0.60000,
,,,-00.119900000000,  -0.80000,
,,,-00.119800000000,  -1.00000,
,,,-00.119700000000,  -0.80000,
,,,-00.119600000000,  -1.00000,
,,,-00.119500000000,  -1.00000,
,,,-00.119400000000,  -1.20000,
,,,-00.119300000000,  -1.20000,
,,,-00.119200000000,  -1.20000,
,,,-00.119100000000,  -1.40000,
,,,-00.119000000000,  -1.40000,
,,,-00.118900000000,  -1.40000,
,,,-00.118800000000,  -1.80000,
,,,-00.118700000000,  -1.60000,
,,,-00.118600000000,  -1.80000,
,,,-00.118500000000,  -1.80000,
,,,-00.118400000000,  -2.00000,
,,,-00.118300000000,  -2.00000,
,,,-00.118200000000,  -2.00000,
,,,-00.118100000000,  -2.00000,
,,,-00.118000000000,  -2.00000,
,,,-00.117900000000,  -2.20000,
,,,-00.117800000000,  -2.40000,
,,,-00.117700000000,  -2.40000,
,,,-00.117600000000,  -2.40000,
,,,-00.117500000000,  -2.60000,
,,,-00.117400000000,  -2.60000,
,,,-00.117300000000,  -2.80000,
,,,-00.117200000000,  -2.80000,
,,,-00.117100000000,  -3.00000,
,,,-00.117000000000,  -3.00000,
,,,-00.116900000000,  -3.00000,
,,,-00.116800000000,  -3.00000,
,,,-00.116700000000,  -3.00000,
,,,-00.116600000000,  -3.20000,
,,,-00.116500000000,  -3.20000,
,,,-00.116400000000,  -3.20000,
,,,-00.116300000000,  -3.20000,
,,,-00.116200000000,  -3.40000,
,,,-00.116100000000,  -3.40000,
,,,-00.116000000000,  -3.80000,
,,,-00.115900000000,  -3.60000,
,,,-00.115800000000,  -3.60000,
,,,-00.115700000000,  -3.80000,
,,,-00.115600000000,  -3.80000,
,,,-00.115500000000,  -4.00000,
,,,-00.115400000000,  -4.00000,
,,,-00.115300000000,  -4.20000,
,,,-00.115200000000,  -4.20000,
,,,-00.115100000000,  -4.20000,
,,,-00.115000000000,  -4.20000,
,,,-00.114900000000,  -4.40000,
,,,-00.114800000000,  -4.40000,
,,,-00.114700000000,  -4.60000,
,,,-00.114600000000,  -4.60000,
,,,-00.114500000000,  -4.60000,
,,,-00.114400000000,  -4.80000,
,,,-00.114300000000,  -4.80000,
,,,-00.114200000000,  -5.00000,
,,,-00.114100000000,  -5.00000,
,,,-00.114000000000,  -5.00000,
,,,-00.113900000000,  -5.00000,
,,,-00.113800000000,  -5.00000,
,,,-00.113700000000,  -5.20000,
,,,-00.113600000000,  -5.20000,
,,,-00.113500000000,  -5.20000,
,,,-00.113400000000,  -5.20000,
,,,-00.113300000000,  -5.40000,
,,,-00.113200000000,  -5.40000,
,,,-00.113100000000,  -5.60000,
,,,-00.113000000000,  -5.60000,
,,,-00.112900000000,  -5.60000,
,,,-00.112800000000,  -5.80000,
,,,-00.112700000000,  -5.80000,
,,,-00.112600000000,  -5.80000,
,,,-00.112500000000,  -6.00000,
,,,-00.112400000000,  -6.00000,
,,,-00.112300000000,  -6.20000,
,,,-00.112200000000,  -6.20000,
,,,-00.112100000000,  -6.20000,
,,,-00.112000000000,  -6.20000,
,,,-00.111900000000,  -6.20000,
,,,-00.111800000000,  -6.40000,
,,,-00.111700000000,  -6.40000,
,,,-00.111600000000,  -6.40000,
,,,-00.111500000000,  -6.60000,
,,,-00.111400000000,  -6.60000,
,,,-00.111300000000,  -6.60000,
,,,-00.111200000000,  -6.80000,
,,,-00.111100000000,  -7.00000,
,,,-00.111000000000,  -7.00000,
,,,-00.110900000000,  -7.00000,
,,,-00.110800000000,  -7.00000,
,,,-00.110700000000,  -7.20000,
,,,-00.110600000000,  -7.20000,
,,,-00.110500000000,  -7.20000,
,,,-00.110400000000,  -7.40000,
,,,-00.110300000000,  -7.40000,
,,,-00.110200000000,  -7.40000,
,,,-00.110100000000,  -7.60000,
,,,-00.110000000000,  -7.60000,
,,,-00.109900000000,  -7.80000,
,,,-00.109800000000,  -7.80000,
,,,-00.109700000000,  -8.00000,
,,,-00.109600000000,  -8.00000,
,,,-00.109500000000,  -8.00000,
,,,-00.109400000000,  -8.00000,
,,,-00.109300000000,  -8.00000,
,,,-00.109200000000,  -8.20000,
,,,-00.109100000000,  -8.40000,
,,,-00.109000000000,  -8.20000,
,,,-00.108900000000,  -8.60000,
,,,-00.108800000000,  -8.60000,
,,,-00.108700000000,  -8.80000,
,,,-00.108600000000,  -8.60000,
,,,-00.108500000000,  -8.60000,
,,,-00.108400000000,  -8.80000,
,,,-00.108300000000,  -8.80000,
,,,-00.108200000000,  -9.00000,
,,,-00.108100000000,  -9.00000,
,,,-00.108000000000,  -9.20000,
,,,-00.107900000000,  -9.00000,
,,,-00.107800000000,  -9.20000,
,,,-00.107700000000,  -9.40000,
,,,-00.107600000000,  -9.40000,
,,,-00.107500000000,  -9.40000,
,,,-00.107400000000,  -9.40000,
,,,-00.107300000000,  -9.60000,
,,,-00.107200000000,  -9.60000,
,,,-00.107100000000,  -9.80000,
,,,-00.107000000000,  -9.80000,
,,,-00.106900000000, -10.00000,
,,,-00.106800000000,  -9.80000,
,,,-00.106700000000, -10.00000,
,,,-00.106600000000, -10.20000,
,,,-00.106500000000, -10.20000,
,,,-00.106400000000, -10.20000,
,,,-00.106300000000, -10.20000,
,,,-00.106200000000, -10.20000,
,,,-00.106100000000, -10.20000,
,,,-00.106000000000, -10.60000,
,,,-00.105900000000, -10.40000,
,,,-00.105800000000, -10.60000,
,,,-00.105700000000, -10.60000,
,,,-00.105600000000, -10.80000,
,,,-00.105500000000, -10.80000,
,,,-00.105400000000, -10.80000,
,,,-00.105300000000, -11.00000,
,,,-00.105200000000, -11.00000,
,,,-00.105100000000, -11.00000,
,,,-00.105000000000, -11.00000,
,,,-00.104900000000, -11.20000,
,,,-00.104800000000, -11.20000,
,,,-00.104700000000, -11.40000,
,,,-00.104600000000, -11.40000,
,,,-00.104500000000, -11.40000,
,,,-00.104400000000, -11.40000,
,,,-00.104300000000, -11.60000,
,,,-00.104200000000, -11.80000,
,,,-00.104100000000, -11.80000,
,,,-00.104000000000, -11.80000,
,,,-00.103900000000, -11.80000,
,,,-00.103800000000, -12.00000,
,,,-00.103700000000, -12.00000,
,,,-00.103600000000, -12.00000,
,,,-00.103500000000, -12.20000,
,,,-00.103400000000, -12.20000,
,,,-00.103300000000, -12.40000,
,,,-00.103200000000, -12.20000,
,,,-00.103100000000, -12.40000,
,,,-00.103000000000, -12.40000,
,,,-00.102900000000, -12.60000,
,,,-00.102800000000, -12.60000,
,,,-00.102700000000, -12.60000,
,,,-00.102600000000, -12.80000,
,,,-00.102500000000, -13.00000,
,,,-00.102400000000, -13.00000,
,,,-00.102300000000, -13.00000,
,,,-00.102200000000, -13.20000,
,,,-00.102100000000, -13.00000,
,,,-00.102000000000, -13.00000,
,,,-00.101900000000, -13.20000,
,,,-00.101800000000, -13.40000,
,,,-00.101700000000, -13.40000,
,,,-00.101600000000, -13.40000,
,,,-00.101500000000, -13.60000,
,,,-00.101400000000, -13.40000,
,,,-00.101300000000, -13.60000,
,,,-00.101200000000, -13.80000,
,,,-00.101100000000, -13.60000,
,,,-00.101000000000, -14.00000,
,,,-00.100900000000, -14.00000,
,,,-00.100800000000, -14.00000,
,,,-00.100700000000, -14.00000,
,,,-00.100600000000, -14.20000,
,,,-00.100500000000, -14.00000,
,,,-00.100400000000, -14.20000,
,,,-00.100300000000, -14.20000,
,,,-00.100200000000, -14.20000,
,,,-00.100100000000, -14.60000,
,,,-00.100000000000, -14.40000,
,,,-00.099900000000, -14.60000,
,,,-00.099800000000, -14.60000,
,,,-00.099700000000, -14.60000,
,,,-00.099600000000, -14.80000,
,,,-00.099500000000, -14.80000,
,,,-00.099400000000, -15.00000,
,,,-00.099300000000, -14.80000,
,,,-00.099200000000, -15.00000,
,,,-00.099100000000, -15.00000,
,,,-00.099000000000, -15.20000,
,,,-00.098900000000, -15.40000,
,,,-00.098800000000, -15.40000,
,,,-00.098700000000, -15.40000,
,,,-00.098600000000, -15.40000,
,,,-00.098500000000, -15.60000,
,,,-00.098400000000, -15.60000,
,,,-00.098300000000, -15.60000,
,,,-00.098200000000, -15.60000,
,,,-00.098100000000, -15.60000,
,,,-00.098000000000, -15.80000,
,,,-00.097900000000, -16.00000,
,,,-00.097800000000, -16.00000,
,,,-00.097700000000, -16.00000,
,,,-00.097600000000, -16.00000,
,,,-00.097500000000, -16.20000,
,,,-00.097400000000, -16.20000,
,,,-00.097300000000, -16.40000,
,,,-00.097200000000, -16.40000,
,,,-00.097100000000, -16.40000,
,,,-00.097000000000, -16.40000,
,,,-00.096900000000, -16.40000,
,,,-00.096800000000, -16.80000,
,,,-00.096700000000, -16.60000,
,,,-00.096600000000, -16.80000,
,,,-00.096500000000, -16.80000,
,,,-00.096400000000, -16.80000,
,,,-00.096300000000, -17.00000,
,,,-00.096200000000, -17.00000,
,,,-00.096100000000, -17.20000,
,,,-00.096000000000, -17.20000,
,,,-00.095900000000, -17.20000,
,,,-00.095800000000, -17.40000,
,,,-00.095700000000, -17.40000,
,,,-00.095600000000, -17.60000,
,,,-00.095500000000, -17.40000,
,,,-00.095400000000, -17.60000,
,,,-00.095300000000, -17.60000,
,,,-00.095200000000, -17.60000,
,,,-00.095100000000, -17.80000,
,,,-00.095000000000, -17.80000,
,,,-00.094900000000, -17.80000,
,,,-00.094800000000, -17.80000,
,,,-00.094700000000, -18.00000,
,,,-00.094600000000, -18.20000,
,,,-00.094500000000, -18.20000,
,,,-00.094400000000, -18.20000,
,,,-00.094300000000, -18.40000,
,,,-00.094200000000, -18.40000,
,,,-00.094100000000, -18.40000,
,,,-00.094000000000, -18.60000,
,,,-00.093900000000, -18.40000,
,,,-00.093800000000, -18.60000,
,,,-00.093700000000, -18.60000,
,,,-00.093600000000, -18.80000,
,,,-00.093500000000, -18.80000,
,,,-00.093400000000, -18.80000,
,,,-00.093300000000, -19.00000,
,,,-00.093200000000, -19.00000,
,,,-00.093100000000, -19.20000,
,,,-00.093000000000, -19.20000,
,,,-00.092900000000, -19.20000,
,,,-00.092800000000, -19.40000,
,,,-00.092700000000, -19.40000,
,,,-00.092600000000, -19.60000,
,,,-00.092500000000, -19.60000,
,,,-00.092400000000, -19.60000,
,,,-00.092300000000, -19.60000,
,,,-00.092200000000, -19.80000,
,,,-00.092100000000, -19.80000,
,,,-00.092000000000, -19.80000,
,,,-00.091900000000, -19.80000,
,,,-00.091800000000, -20.00000,
,,,-00.091700000000, -20.00000,
,,,-00.091600000000, -20.00000,
,,,-00.091500000000, -20.20000,
,,,-00.091400000000, -20.40000,
,,,-00.091300000000, -20.20000,
,,,-00.091200000000, -20.40000,
,,,-00.091100000000, -20.40000,
,,,-00.091000000000, -20.60000,
,,,-00.090900000000, -20.60000,
,,,-00.090800000000, -20.60000,
,,,-00.090700000000, -20.80000,
,,,-00.090600000000, -20.80000,
,,,-00.090500000000, -20.80000,
,,,-00.090400000000, -20.80000,
,,,-00.090300000000, -21.00000,
,,,-00.090200000000, -21.00000,
,,,-00.090100000000, -21.20000,
,,,-00.090000000000, -21.00000,
,,,-00.089900000000, -21.40000,
,,,-00.089800000000, -21.20000,
,,,-00.089700000000, -21.40000,
,,,-00.089600000000, -21.60000,
,,,-00.089500000000, -21.40000,
,,,-00.089400000000, -21.60000,
,,,-00.089300000000, -21.60000,
,,,-00.089200000000, -21.60000,
,,,-00.089100000000, -21.80000,
,,,-00.089000000000, -21.80000,
,,,-00.088900000000, -21.80000,
,,,-00.088800000000, -21.80000,
,,,-00.088700000000, -21.80000,
,,,-00.088600000000, -22.00000,
,,,-00.088500000000, -22.20000,
,,,-00.088400000000, -22.20000,
,,,-00.088300000000, -22.40000,
,,,-00.088200000000, -22.40000,
,,,-00.088100000000, -22.40000,
,,,-00.088000000000, -22.40000,
,,,-00.087900000000, -22.60000,
,,,-00.087800000000, -22.60000,
,,,-00.087700000000, -22.60000,
,,,-00.087600000000, -22.80000,
,,,-00.087500000000, -22.80000,
,,,-00.087400000000, -23.00000,
,,,-00.087300000000, -23.00000,
,,,-00.087200000000, -23.00000,
,,,-00.087100000000, -23.00000,
,,,-00.087000000000, -23.00000,
,,,-00.086900000000, -23.00000,
,,,-00.086800000000, -23.40000,
,,,-00.086700000000, -23.40000,
,,,-00.086600000000, -23.40000,
,,,-00.086500000000, -23.40000,
,,,-00.086400000000, -23.60000,
,,,-00.086300000000, -23.60000,
,,,-00.086200000000, -23.60000,
,,,-00.086100000000, -23.80000,
,,,-00.086000000000, -23.80000,
,,,-00.085900000000, -23.80000,
,,,-00.085800000000, -23.80000,
,,,-00.085700000000, -24.00000,
,,,-00.085600000000, -24.00000,
,,,-00.085500000000, -24.20000,
,,,-00.085400000000, -24.20000,
,,,-00.085300000000, -24.40000,
,,,-00.085200000000, -24.20000,
,,,-00.085100000000, -24.60000,
,,,-00.085000000000, -24.40000,
,,,-00.084900000000, -24.60000,
,,,-00.084800000000, -24.60000,
,,,-00.084700000000, -24.60000,
,,,-00.084600000000, -24.60000,
,,,-00.084500000000, -24.80000,
,,,-00.084400000000, -24.60000,
,,,-00.084300000000, -24.80000,
,,,-00.084200000000, -25.00000,
,,,-00.084100000000, -25.00000,
,,,-00.084000000000, -25.20000,
,,,-00.083900000000, -25.20000,
,,,-00.083800000000, -25.20000,
,,,-00.083700000000, -25.40000,
